test.vcd
$date
	Mon Nov 03 17:35:39 2025
$end
$version
	Icarus Verilog
$end
$timescale
	1s
$end
$scope module top_test $end
$var wire 32 ! cycle [31:0] $end
$var reg 1 " clk $end
$var reg 11 # loc [10:0] $end
$var reg 1 $ rst $end
$var integer 32 % i [31:0] $end
$scope module dut $end
$var wire 1 " clk $end
$var wire 1 $ rst $end
$var wire 4 & wr_strobe [3:0] $end
$var wire 1 ' rstrb $end
$var wire 32 ( mem_wdata [31:0] $end
$var wire 32 ) mem_rdata [31:0] $end
$var wire 32 * cycle [31:0] $end
$var wire 32 + addr [31:0] $end
$scope module cpu0 $end
$var wire 1 , branch_taken $end
$var wire 1 " clk $end
$var wire 32 - forward_data_mem [31:0] $end
$var wire 32 . forward_data_wb [31:0] $end
$var wire 32 / instruction_from_mem [31:0] $end
$var wire 32 0 jalr_target_calc [31:0] $end
$var wire 1 1 mem_access_in_mem_stage $end
$var wire 1 ' mem_rstrb $end
$var wire 1 2 mem_to_reg_wb $end
$var wire 5 3 rd_wb [4:0] $end
$var wire 1 4 reg_write_wb $end
$var wire 1 $ rst $end
$var wire 1 5 take_branch_condition $end
$var wire 1 6 zero_flag $end
$var wire 32 7 write_data_to_reg [31:0] $end
$var wire 5 8 rs2_id [4:0] $end
$var wire 32 9 rs2_data [31:0] $end
$var wire 5 : rs1_id [4:0] $end
$var wire 32 ; rs1_data [31:0] $end
$var wire 5 < rd_id [4:0] $end
$var wire 32 = pcplus4_if [31:0] $end
$var wire 32 > pc_ex [31:0] $end
$var wire 5 ? opcode_id [4:0] $end
$var wire 32 @ next_pc [31:0] $end
$var wire 4 A mem_wstrb [3:0] $end
$var wire 32 B mem_wdata [31:0] $end
$var wire 32 C mem_rdata [31:0] $end
$var wire 1 D mem_halfwordAccess_mem $end
$var wire 1 E mem_byteAccess_mem $end
$var wire 32 F mem_addr [31:0] $end
$var wire 32 G load_data_formatted [31:0] $end
$var wire 1 H is_jalr_id $end
$var wire 1 I is_jal_id $end
$var wire 1 J is_instruction_fetch $end
$var wire 1 K is_btype_id $end
$var wire 1 L is_bne $end
$var wire 1 M is_beq $end
$var wire 32 N imm_u [31:0] $end
$var wire 32 O imm_s [31:0] $end
$var wire 32 P imm_j [31:0] $end
$var wire 32 Q imm_i [31:0] $end
$var wire 32 R imm_b [31:0] $end
$var wire 7 S funct7_id [6:0] $end
$var wire 3 T funct3_id [2:0] $end
$var wire 32 U forwarded_alu_in2 [31:0] $end
$var wire 32 V forwarded_alu_in1 [31:0] $end
$var wire 32 W branch_target_ex [31:0] $end
$var wire 32 X alu_result [31:0] $end
$var wire 32 Y alu_input_b [31:0] $end
$var wire 32 Z alu_in2_source_select [31:0] $end
$var wire 32 [ alu_in1_source_select [31:0] $end
$var wire 4 \ STORE_wmask_mem [3:0] $end
$var wire 1 ] LOAD_sign_mem $end
$var wire 16 ^ LOAD_halfword_mem [15:0] $end
$var wire 8 _ LOAD_byte_mem [7:0] $end
$var reg 3 ` ForwardA [2:0] $end
$var reg 3 a ForwardB [2:0] $end
$var reg 4 b alu_op_ctrl [3:0] $end
$var reg 1 c alusrc_ctrl $end
$var reg 2 d ctrl_alu_in1_src [1:0] $end
$var reg 32 e cycle [31:0] $end
$var reg 32 f debug_ex_instruction [31:0] $end
$var reg 32 g debug_id_instruction [31:0] $end
$var reg 32 h debug_mem_instruction [31:0] $end
$var reg 32 i debug_wb_instruction [31:0] $end
$var reg 32 j ex_mem_alu_result [31:0] $end
$var reg 32 k ex_mem_branch_target [31:0] $end
$var reg 3 l ex_mem_funct3 [2:0] $end
$var reg 1 m ex_mem_isBtype $end
$var reg 1 n ex_mem_isJAL $end
$var reg 1 o ex_mem_isJALR $end
$var reg 1 p ex_mem_mem_read $end
$var reg 1 q ex_mem_mem_to_reg $end
$var reg 1 r ex_mem_mem_write $end
$var reg 32 s ex_mem_rd_addr [31:0] $end
$var reg 1 t ex_mem_reg_write $end
$var reg 32 u ex_mem_rs2_data [31:0] $end
$var reg 1 v ex_mem_zero_flag $end
$var reg 2 w id_ex_alu_in1_src [1:0] $end
$var reg 4 x id_ex_alu_op [3:0] $end
$var reg 1 y id_ex_alusrc $end
$var reg 3 z id_ex_funct3 [2:0] $end
$var reg 32 { id_ex_immediate [31:0] $end
$var reg 1 | id_ex_isBtype_reg $end
$var reg 1 } id_ex_isJAL $end
$var reg 1 ~ id_ex_isJALR $end
$var reg 1 !" id_ex_mem_read $end
$var reg 1 "" id_ex_mem_to_reg $end
$var reg 1 #" id_ex_mem_write $end
$var reg 32 $" id_ex_pcplus4 [31:0] $end
$var reg 5 %" id_ex_rd_addr [4:0] $end
$var reg 1 &" id_ex_reg_write $end
$var reg 5 '" id_ex_rs1_addr [4:0] $end
$var reg 32 (" id_ex_rs1_data [31:0] $end
$var reg 5 )" id_ex_rs2_addr [4:0] $end
$var reg 32 *" id_ex_rs2_data [31:0] $end
$var reg 32 +" if_id_instruction [31:0] $end
$var reg 32 ," if_id_pcplus4 [31:0] $end
$var reg 32 -" immediate_id [31:0] $end
$var reg 1 ." mem_read_ctrl $end
$var reg 1 /" mem_to_reg_ctrl $end
$var reg 32 0" mem_wb_alu_result [31:0] $end
$var reg 32 1" mem_wb_mem_data [31:0] $end
$var reg 1 2" mem_wb_mem_to_reg $end
$var reg 5 3" mem_wb_rd_addr [4:0] $end
$var reg 1 4" mem_wb_reg_write $end
$var reg 1 5" mem_write_ctrl $end
$var reg 32 6" pc_reg [31:0] $end
$var reg 1 7" reg_write_ctrl $end
$scope module alu_inst $end
$var wire 4 8" ALUOp [3:0] $end
$var wire 32 9" alu_in1 [31:0] $end
$var wire 32 :" alu_in2 [31:0] $end
$var wire 1 6 zero_flag $end
$var parameter 4 ;" ALU_ADD $end
$var parameter 4 <" ALU_AND $end
$var parameter 4 =" ALU_OR $end
$var parameter 4 >" ALU_SLL $end
$var parameter 4 ?" ALU_SLT $end
$var parameter 4 @" ALU_SLTU $end
$var parameter 4 A" ALU_SRA $end
$var parameter 4 B" ALU_SRL $end
$var parameter 4 C" ALU_SUB $end
$var parameter 4 D" ALU_XOR $end
$var reg 32 E" alu_out [31:0] $end
$upscope $end
$scope module reg_file_inst $end
$var wire 1 " clk $end
$var wire 5 F" rd [4:0] $end
$var wire 5 G" rs1 [4:0] $end
$var wire 5 H" rs2 [4:0] $end
$var wire 1 $ rst $end
$var wire 32 I" write_data [31:0] $end
$var wire 1 4 write_en $end
$var wire 32 J" rs2_data [31:0] $end
$var wire 32 K" rs1_data [31:0] $end
$var integer 32 L" i [31:0] $end
$upscope $end
$upscope $end
$scope module mem0 $end
$var wire 32 M" addr [31:0] $end
$var wire 1 " clk $end
$var wire 32 N" data_in [31:0] $end
$var wire 1 ' rd_strobe $end
$var wire 1 $ rst $end
$var wire 4 O" wr_strobe [3:0] $end
$var wire 30 P" mem_loc [29:0] $end
$var parameter 32 Q" MEM_SIZE $end
$var reg 32 R" data_out [31:0] $end
$upscope $end
$upscope $end
$upscope $end
$enddefinitions $end
$comment Show the parameter values. $end
$dumpall
b10000000000 Q"
b10 D"
b1 C"
b110 B"
b111 A"
b1001 @"
b1000 ?"
b101 >"
b11 ="
b100 <"
b0 ;"
$end
#0
$dumpvars
bx R"
b0 P"
b0 O"
b0 N"
b0 M"
bx L"
b0 K"
b0 J"
b0 I"
b0 H"
b0 G"
b0 F"
b0 E"
b0 :"
b0 9"
b0 8"
17"
b0 6"
05"
04"
b0 3"
02"
b0 1"
b0 0"
0/"
0."
b0 -"
b0 ,"
b10011 +"
b0 *"
b0 )"
b0 ("
b0 '"
0&"
b0 %"
b0 $"
0#"
0""
0!"
0~
0}
0|
b0 {
b0 z
0y
b0 x
b0 w
0v
b0 u
0t
b0 s
0r
0q
0p
0o
0n
0m
bx l
b0 k
b0 j
b10011 i
b10011 h
b10011 g
b10011 f
b0 e
b0 d
1c
b0 b
b0 a
b0 `
bx _
bx ^
x]
bx1 \
b0 [
b0 Z
b0 Y
b0 X
b11111111111111111111111111111100 W
b0 V
b0 U
b0 T
b0 S
b0 R
b0 Q
b0 P
b0 O
b0 N
xM
xL
0K
1J
0I
0H
bx G
b0 F
xE
xD
bx C
b0 B
b0 A
b100 @
b100 ?
b11111111111111111111111111111100 >
b100 =
b0 <
b0 ;
b0 :
b0 9
b0 8
b0 7
16
05
04
b0 3
02
01
b0 0
bx /
b0 .
b0 -
x,
b0 +
b0 *
bx )
b0 (
1'
b0 &
bx %
1$
b1111101000 #
0"
b0 !
$end
#5
b10011 G
b10011 _
b10011 ^
b10011 /
b10011 )
b10011 C
b10011 R"
b100000 L"
1"
#10
0"
#15
b100000 L"
1"
#20
0"
#25
b100000 L"
1"
#30
0"
#35
b100000 L"
1"
#40
0"
#45
b100000 L"
1"
#50
0"
0$
#55
b11111111111111111111111110010011 G
b10010011 _
b1000 @
b10010011 ^
b1 \
1,
b1 P"
1E
0D
1]
b100 +
b100 F
b100 M"
b101000000000000010010011 /
b101000000000000010010011 )
b101000000000000010010011 C
b101000000000000010010011 R"
b10011 1"
b11111111111111111111111111111100 k
1M
0L
b0 l
1v
1&"
1y
b100 ,"
b1000 =
1J
b100 6"
b1 !
b1 *
b1 e
1"
#60
0"
#65
b10011 G
b10011 _
b1100 @
b100010011 ^
b1010 -"
b10 P"
b1 <
b1010 8
b1010 H"
b1010 Q
b100000000000 R
b1 O
b1010 P
b101000000000000000000000 N
b1000 +
b1000 F
b1000 M"
b1010000000000000100010011 /
b1010000000000000100010011 )
b1010000000000000100010011 C
b1010000000000000100010011 R"
b10 !
b10 *
b10 e
b101000000000000010010011 1"
1t
b0 W
b0 >
b100 $"
b1000 ,"
b101000000000000010010011 +"
b1100 =
1J
b1000 6"
1"
#70
0"
#75
b11111111111111111111111110110011 G
b10110011 _
06
b1010 0
b1010 X
b1010 E"
b10000 @
b1000000110110011 ^
b1010 U
b1010 :"
b10100 -"
b11 P"
b1010 Z
b1010 Y
b10 <
b10100 8
b10100 H"
b10100 Q
b10 R
b10 O
b10100 P
b1010000000000000000000000 N
b1100 +
b1100 F
b1100 M"
b1000001000000110110011 /
b1000001000000110110011 )
b1000001000000110110011 C
b1000001000000110110011 R"
b101000000000000010010011 g
14
14"
b1010000000000000100010011 1"
b0 k
b1 %"
b1010 )"
b1010 {
b1110 W
b100 >
b1000 $"
b1100 ,"
b1010000000000000100010011 +"
b10000 =
1J
b1100 6"
b11 !
b11 *
b11 e
1"
#80
0"
#85
b110000 G
b110000 _
b100 \
b10100 0
b10100 X
b10100 E"
b10100 @
0,
b11000110000 ^
b10100 U
b10100 :"
17"
0c
b10 -"
b100 P"
b10100 Z
b10100 Y
b1100 ?
b11 <
b1 :
b1 G"
b10 8
b10 H"
b10 Q
b100000000010 R
b11 O
b1000000000000010 P
b1000001000000000000000 N
b10000 +
b10000 F
b10000 M"
b110001100000010001000100011 /
b110001100000010001000100011 )
b110001100000010001000100011 C
b110001100000010001000100011 R"
b100 !
b100 *
b100 e
b101000000000000010010011 f
b1010000000000000100010011 g
b1000001000000110110011 1"
b1110 k
0v
b1 s
b1010 -
b1010 j
b10 %"
b10100 )"
b10100 {
b11100 W
b1000 >
b1100 $"
b10000 ,"
b1000001000000110110011 +"
b10100 =
1J
b10000 6"
1"
#90
0"
#95
b110111 G
b110111 _
b1 \
b11110 0
b11110 X
b11110 E"
b11000 @
b1110001000110111 ^
b1010 V
b1010 9"
15"
1c
07"
b1100100 -"
b101 P"
b1010 .
b1010 7
b1010 I"
b1 `
b10 a
b0 Z
b0 Y
b1000 ?
b100 <
b0 :
b0 G"
b11 8
b11 H"
b10 T
b11 S
b1100011 Q
b1100100 R
b1100100 O
b10100001100010 P
b110001100000010000000000000 N
b10100 +
b10100 F
b10100 M"
b10101011110011011110001000110111 /
b10101011110011011110001000110111 )
b10101011110011011110001000110111 C
b10101011110011011110001000110111 R"
b101000000000000010010011 h
b1010000000000000100010011 f
b1000001000000110110011 g
b1 3
b1 F"
b1 3"
b1010 0"
b110001100000010001000100011 1"
b11100 k
b10 s
b10100 -
b10100 j
0y
b11 %"
b10 )"
b1 '"
b10 {
b1110 W
b1100 >
b10000 $"
b10100 ,"
b110001100000010001000100011 +"
b11000 =
1J
b10100 6"
b101 !
b101 *
b101 e
1"
#100
0"
#105
b0 G
b0 _
b100 \
b11110 U
b11110 :"
b11110 0
b11110 X
b11110 E"
b11100 @
b0 ^
b0 V
b0 9"
17"
05"
1c
b10101011110011011110000000000000 -"
b110 P"
b10100 .
b10100 7
b10100 I"
b1100100 Z
b1100100 Y
b10 a
b0 `
b1101 ?
b11011 :
b11011 G"
b11100 8
b11100 H"
b110 T
b1010101 S
b11111111111111111111101010111100 Q
b11111111111111111111001010100100 R
b11111111111111111111101010100100 O
b11111111111111011110001010111100 P
b10101011110011011110000000000000 N
b11000 +
b11000 F
b11000 M"
b10011 /
b10011 )
b10011 C
b10011 R"
b110 !
b110 *
b110 e
b101000000000000010010011 i
b1010000000000000100010011 h
b1000001000000110110011 f
b110001100000010001000100011 g
b10 3
b10 F"
b10 3"
b10100 0"
b10101011110011011110001000110111 1"
b1110 k
b11 s
b11110 -
b11110 j
b10 z
0&"
1#"
1y
b100 %"
b11 )"
b0 '"
b1100100 {
b1110100 W
b10000 >
b10100 $"
b11000 ,"
b10101011110011011110001000110111 +"
b11100 =
1J
b11000 6"
1"
#110
0"
#115
b10011111 _
b10101011110011011110000000000000 0
b10101011110011011110000000000000 X
b10101011110011011110000000000000 E"
b100000 @
b1111111110011111 ^
b11111111100111111111000001101111 G
b1111 \
0'
b10101011110011011110000000000000 U
b10101011110011011110000000000000 :"
17"
1c
b0 -"
b111 P"
b11110 .
b11110 7
b11110 I"
0E
b1111 &
b1111 A
b1111 O"
11
b0 a
b10101011110011011110000000000000 Z
b10101011110011011110000000000000 Y
b100 ?
b0 <
b0 :
b0 G"
b0 8
b0 H"
b0 T
b0 S
b0 Q
b0 R
b0 O
b0 P
b0 N
b11110 +
b11110 F
b11110 M"
b11111111100111111111000001101111 /
b11111111100111111111000001101111 )
b11111111100111111111000001101111 C
b11111111100111111111000001101111 R"
b1010000000000000100010011 i
b1000001000000110110011 h
b110001100000010001000100011 f
b10101011110011011110001000110111 g
b11 3
b11 F"
b11 3"
b11110 0"
b10011 1"
b1110100 k
0M
b10 l
0t
1r
b100 s
b110 z
1&"
0#"
b11100 )"
b11011 '"
b10101011110011011110000000000000 {
b10101011110011011110000000010100 W
b10100 >
b11000 $"
b11100 ,"
b10011 +"
b100000 =
0J
b11100 6"
b111 !
b111 *
b111 e
1"
#120
0"
#125
b1101111 _
16
b0 0
b0 X
b0 E"
b100100 @
1J
1'
b1111000001101111 ^
b1000 P"
b0 U
b0 :"
17"
1c
b11111111111111111111111111111000 -"
0]
b0 &
b0 A
b0 O"
01
b100000 +
b100000 F
b100000 M"
b0 Z
b0 Y
1I
b11011 ?
b11111 :
b11111 G"
b11001 8
b11001 H"
b111 T
b1111111 S
b11111111111111111111111111111001 Q
b11111111111111111111011111100000 R
b11111111111111111111111111100000 O
b11111111111111111111111111111000 P
b11111111100111111111000000000000 N
b1000 !
b1000 *
b1000 e
b1000001000000110110011 i
b110001100000010001000100011 h
b10101011110011011110001000110111 f
b10011 g
04
04"
b100 3
b100 F"
b100 3"
b11111111100111111111000001101111 1"
b10101011110011011110000000010100 k
b110 l
1t
0r
b10101011110011011110000000000000 -
b10101011110011011110000000000000 j
b0 z
b0 %"
b0 )"
b0 '"
b0 {
b11000 W
b11000 >
b11100 $"
b100000 ,"
b11111111100111111111000001101111 +"
b100100 =
b100000 6"
1"
#130
0"
#135
b10011 _
06
b11111111111111111111111111111000 0
b11111111111111111111111111111000 X
b11111111111111111111111111111000 E"
b101000 @
b10011 ^
b10011 G
b1 \
1,
b11111111111111111111111111111000 U
b11111111111111111111111111111000 :"
b1001 P"
b10101011110011011110000000000000 .
b10101011110011011110000000000000 7
b10101011110011011110000000000000 I"
1E
1]
b11111111111111111111111111111000 Z
b11111111111111111111111111111000 Y
b100100 +
b100100 F
b100100 M"
b10011 /
b10011 )
b10011 C
b10011 R"
b110001100000010001000100011 i
b10101011110011011110001000110111 h
b10011 f
b11111111100111111111000001101111 g
14
14"
b10101011110011011110000000000000 0"
b11000 k
1}
1M
b0 l
1v
b0 s
b0 -
b0 j
b111 z
b11001 )"
b11111 '"
b11111111111111111111111111111000 {
b10100 W
b11100 >
b100000 $"
b100100 ,"
b101000 =
1J
b100100 6"
b1001 !
b1001 *
b1001 e
1"
#140
0"
#145
b10100 @
b1111 \
0,
17"
1c
b0 -"
b1010 P"
b0 .
b0 7
b0 I"
0E
0]
0I
b100 ?
b0 :
b0 G"
b0 8
b0 H"
b0 T
b0 S
b0 Q
b0 R
b0 O
b0 P
b0 N
b101000 +
b101000 F
b101000 M"
b1010 !
b1010 *
b1010 e
b10101011110011011110001000110111 i
b10011 h
b11111111100111111111000001101111 f
b0 3
b0 F"
b0 3"
b0 0"
b10011 1"
b10100 k
1n
0M
b111 l
0v
b11111111111111111111111111111000 -
b11111111111111111111111111111000 j
b11000 W
b100000 >
b100100 $"
b101000 ,"
b10011 +"
b101100 =
1J
b101000 6"
1"
#150
0"
#155
b11000 @
16
b0 0
b0 X
b0 E"
b0 U
b0 :"
b101 P"
b11111111111111111111111111111000 .
b11111111111111111111111111111000 7
b11111111111111111111111111111000 I"
b0 Z
b0 Y
b10100 +
b10100 F
b10100 M"
b10011 i
b11111111100111111111000001101111 h
b10011 g
b11111111111111111111111111111000 0"
b11000 k
0}
b0 z
b0 )"
b0 '"
b0 {
b100100 W
b100100 >
b101000 $"
b101100 ,"
b11000 =
1J
b10100 6"
b1011 !
b1011 *
b1011 e
1"
#160
0"
#165
b11100 @
b1 \
1,
b110 P"
1E
1]
b11000 +
b11000 F
b11000 M"
b1100 !
b1100 *
b1100 e
b11111111100111111111000001101111 i
b10011 f
b100100 k
0n
1M
b0 l
1v
b0 -
b0 j
b101000 W
b101000 >
b101100 $"
b11000 ,"
b11100 =
1J
b11000 6"
1"
#170
0"
#175
b1101111 G
b1101111 _
b100000 @
b1111000001101111 ^
b111 P"
b0 .
b0 7
b0 I"
b11100 +
b11100 F
b11100 M"
b11111111100111111111000001101111 /
b11111111100111111111000001101111 )
b11111111100111111111000001101111 C
b11111111100111111111000001101111 R"
b10011 h
b0 0"
b101000 k
b10100 W
b10100 >
b11000 $"
b11100 ,"
b100000 =
1J
b11100 6"
b1101 !
b1101 *
b1101 e
1"
#180
0"
#185
b0 G
b0 _
b100100 @
b0 ^
17"
1c
b11111111111111111111111111111000 -"
b1000 P"
1I
b11011 ?
b11111 :
b11111 G"
b11001 8
b11001 H"
b111 T
b1111111 S
b11111111111111111111111111111001 Q
b11111111111111111111011111100000 R
b11111111111111111111111111100000 O
b11111111111111111111111111111000 P
b11111111100111111111000000000000 N
b100000 +
b100000 F
b100000 M"
b0 /
b0 )
b0 C
b0 R"
b1110 !
b1110 *
b1110 e
b10011 i
b11111111100111111111000001101111 1"
b10100 k
b11000 W
b11000 >
b11100 $"
b100000 ,"
b11111111100111111111000001101111 +"
b100100 =
1J
b100000 6"
1"
#190
0"
#195
b10011 G
b10011 _
06
b11111111111111111111111111111000 0
b11111111111111111111111111111000 X
b11111111111111111111111111111000 E"
b101000 @
b10011 ^
b11111111111111111111111111111000 U
b11111111111111111111111111111000 :"
1/"
1."
17"
1c
b0 -"
b1001 P"
b11111111111111111111111111111000 Z
b11111111111111111111111111111000 Y
0I
b0 ?
b0 :
b0 G"
b0 8
b0 H"
b0 T
b0 S
b0 Q
b0 R
b0 O
b0 P
b0 N
b100100 +
b100100 F
b100100 M"
b10011 /
b10011 )
b10011 C
b10011 R"
b11111111100111111111000001101111 g
b0 1"
b11000 k
1}
b111 z
b11001 )"
b11111 '"
b11111111111111111111111111111000 {
b10100 W
b11100 >
b100000 $"
b100100 ,"
b0 +"
b101000 =
1J
b100100 6"
b1111 !
b1111 *
b1111 e
1"
#200
0"
#205
16
b0 0
b0 X
b0 E"
b10100 @
b1111 \
0,
b0 U
b0 :"
0/"
17"
0."
1c
b1010 P"
0E
0]
b0 Z
b0 Y
b100 ?
b101000 +
b101000 F
b101000 M"
b10000 !
b10000 *
b10000 e
b11111111100111111111000001101111 f
b0 g
b10011 1"
b10100 k
1n
0}
0M
b111 l
0v
b11111111111111111111111111111000 -
b11111111111111111111111111111000 j
b0 z
1""
1!"
b0 )"
b0 '"
b0 {
b100000 W
b100000 >
b100100 $"
b101000 ,"
b10011 +"
b101100 =
1J
b101000 6"
1"
#210
0"
#215
b11000 @
b1 \
1,
b0 P"
b11111111111111111111111111111000 .
b11111111111111111111111111111000 7
b11111111111111111111111111111000 I"
1E
1]
11
b0 +
b0 F
b0 M"
b11111111100111111111000001101111 h
b0 f
b10011 g
b11111111111111111111111111111000 0"
b100000 k
0n
1M
b0 l
1q
1p
1v
b0 -
b0 j
0""
0!"
b100100 W
b100100 >
b101000 $"
b101100 ,"
b11000 =
0J
b10100 6"
b10001 !
b10001 *
b10001 e
1"
#220
0"
#225
b11111111111111111111111110010011 G
b10010011 _
b110 P"
b11100 @
b10010011 ^
1J
b11000 +
b11000 F
b11000 M"
b10011 .
b10011 7
b10011 I"
01
b101000000000000010010011 /
b101000000000000010010011 )
b101000000000000010010011 C
b101000000000000010010011 R"
b10010 !
b10010 *
b10010 e
b11111111100111111111000001101111 i
b0 h
b10011 f
12
12"
b0 0"
b100100 k
0q
0p
b101000 W
b101000 >
b101100 $"
b11000 ,"
b11100 =
b11000 6"
1"
#230
0"
#235
b1101111 G
b1101111 _
b100000 @
b1111000001101111 ^
b1010 -"
b111 P"
b0 .
b0 7
b0 I"
b1 <
b1010 8
b1010 H"
b1010 Q
b100000000000 R
b1 O
b1010 P
b101000000000000000000000 N
b11100 +
b11100 F
b11100 M"
b11111111100111111111000001101111 /
b11111111100111111111000001101111 )
b11111111100111111111000001101111 C
b11111111100111111111000001101111 R"
b0 i
b10011 h
02
02"
b101000000000000010010011 1"
b101000 k
b10100 W
b10100 >
b11000 $"
b11100 ,"
b101000000000000010010011 +"
b100000 =
1J
b11100 6"
b10011 !
b10011 *
b10011 e
1"
#240
0"
#245
b0 G
b0 _
06
b1010 0
b1010 X
b1010 E"
b100100 @
b0 ^
b1010 U
b1010 :"
17"
1c
b11111111111111111111111111111000 -"
b1000 P"
b1010 Z
b1010 Y
1I
b11011 ?
b0 <
b11111 :
b11111 G"
b11001 8
b11001 H"
b111 T
b1111111 S
b11111111111111111111111111111001 Q
b11111111111111111111011111100000 R
b11111111111111111111111111100000 O
b11111111111111111111111111111000 P
b11111111100111111111000000000000 N
b100000 +
b100000 F
b100000 M"
b0 /
b0 )
b0 C
b0 R"
b10100 !
b10100 *
b10100 e
b10011 i
b101000000000000010010011 g
b11111111100111111111000001101111 1"
b10100 k
b1 %"
b1010 )"
b1010 {
b100010 W
b11000 >
b11100 $"
b100000 ,"
b11111111100111111111000001101111 +"
b100100 =
1J
b100000 6"
1"
#250
0"
#255
b100 \
b11111111111111111111111111111000 0
b11111111111111111111111111111000 X
b11111111111111111111111111111000 E"
b101000 @
0,
b11111111111111111111111111111000 U
b11111111111111111111111111111000 :"
1/"
1."
17"
1c
b0 -"
b1001 P"
b11111111111111111111111111111000 Z
b11111111111111111111111111111000 Y
0I
b0 ?
b0 :
b0 G"
b0 8
b0 H"
b0 T
b0 S
b0 Q
b0 R
b0 O
b0 P
b0 N
b100100 +
b100100 F
b100100 M"
b10011 /
b10011 )
b10011 C
b10011 R"
b101000000000000010010011 f
b11111111100111111111000001101111 g
b0 1"
b100010 k
1}
0v
b1 s
b1010 -
b1010 j
b111 z
b0 %"
b11001 )"
b11111 '"
b11111111111111111111111111111000 {
b10100 W
b11100 >
b100000 $"
b100100 ,"
b0 +"
b101000 =
1J
b100100 6"
b10101 !
b10101 *
b10101 e
1"
#260
0"
#265
b10011 _
16
b0 0
b0 X
b0 E"
b10100 @
b10011 G
b1111 \
b10011 ^
b0 U
b0 :"
0/"
17"
0."
1c
b1010 P"
b1010 .
b1010 7
b1010 I"
0E
0]
b0 Z
b0 Y
b100 ?
b101000 +
b101000 F
b101000 M"
b10110 !
b10110 *
b10110 e
b101000000000000010010011 h
b11111111100111111111000001101111 f
b0 g
b1 3
b1 F"
b1 3"
b1010 0"
b10011 1"
b10100 k
1n
0}
0M
b111 l
b0 s
b11111111111111111111111111111000 -
b11111111111111111111111111111000 j
b0 z
1""
1!"
b0 )"
b0 '"
b0 {
b100000 W
b100000 >
b100100 $"
b101000 ,"
b10011 +"
b101100 =
1J
b101000 6"
1"
#270
0"
#275
b11000 @
b1 \
1,
b0 P"
b11111111111111111111111111111000 .
b11111111111111111111111111111000 7
b11111111111111111111111111111000 I"
1E
1]
11
b0 +
b0 F
b0 M"
b101000000000000010010011 i
b11111111100111111111000001101111 h
b0 f
b10011 g
b0 3
b0 F"
b0 3"
b11111111111111111111111111111000 0"
b100000 k
0n
1M
b0 l
1q
1p
1v
b0 -
b0 j
0""
0!"
b100100 W
b100100 >
b101000 $"
b101100 ,"
b11000 =
0J
b10100 6"
b10111 !
b10111 *
b10111 e
1"
#280
0"
#285
b11111111111111111111111110010011 G
b10010011 _
b110 P"
b11100 @
b10010011 ^
1J
b11000 +
b11000 F
b11000 M"
b10011 .
b10011 7
b10011 I"
01
b101000000000000010010011 /
b101000000000000010010011 )
b101000000000000010010011 C
b101000000000000010010011 R"
b11000 !
b11000 *
b11000 e
b11111111100111111111000001101111 i
b0 h
b10011 f
12
12"
b0 0"
b100100 k
0q
0p
b101000 W
b101000 >
b101100 $"
b11000 ,"
b11100 =
b11000 6"
1"
#290
0"
#295
b1101111 G
b1101111 _
b100000 @
b1111000001101111 ^
b1010 -"
b111 P"
b0 .
b0 7
b0 I"
b1 <
b1010 8
b1010 H"
b1010 Q
b100000000000 R
b1 O
b1010 P
b101000000000000000000000 N
b11100 +
b11100 F
b11100 M"
b11111111100111111111000001101111 /
b11111111100111111111000001101111 )
b11111111100111111111000001101111 C
b11111111100111111111000001101111 R"
b0 i
b10011 h
02
02"
b101000000000000010010011 1"
b101000 k
b10100 W
b10100 >
b11000 $"
b11100 ,"
b101000000000000010010011 +"
b100000 =
1J
b11100 6"
b11001 !
b11001 *
b11001 e
1"
#300
0"
#305
b0 G
b0 _
06
b1010 0
b1010 X
b1010 E"
b100100 @
b0 ^
b1010 U
b1010 :"
17"
1c
b11111111111111111111111111111000 -"
b1000 P"
b1010 Z
b1010 Y
1I
b11011 ?
b0 <
b11111 :
b11111 G"
b11001 8
b11001 H"
b111 T
b1111111 S
b11111111111111111111111111111001 Q
b11111111111111111111011111100000 R
b11111111111111111111111111100000 O
b11111111111111111111111111111000 P
b11111111100111111111000000000000 N
b100000 +
b100000 F
b100000 M"
b0 /
b0 )
b0 C
b0 R"
b11010 !
b11010 *
b11010 e
b10011 i
b101000000000000010010011 g
b11111111100111111111000001101111 1"
b10100 k
b1 %"
b1010 )"
b1010 {
b100010 W
b11000 >
b11100 $"
b100000 ,"
b11111111100111111111000001101111 +"
b100100 =
1J
b100000 6"
1"
#310
0"
#315
b100 \
b11111111111111111111111111111000 0
b11111111111111111111111111111000 X
b11111111111111111111111111111000 E"
b101000 @
0,
b11111111111111111111111111111000 U
b11111111111111111111111111111000 :"
1/"
1."
17"
1c
b0 -"
b1001 P"
b11111111111111111111111111111000 Z
b11111111111111111111111111111000 Y
0I
b0 ?
b0 :
b0 G"
b0 8
b0 H"
b0 T
b0 S
b0 Q
b0 R
b0 O
b0 P
b0 N
b100100 +
b100100 F
b100100 M"
b10011 /
b10011 )
b10011 C
b10011 R"
b101000000000000010010011 f
b11111111100111111111000001101111 g
b0 1"
b100010 k
1}
0v
b1 s
b1010 -
b1010 j
b111 z
b0 %"
b11001 )"
b11111 '"
b11111111111111111111111111111000 {
b10100 W
b11100 >
b100000 $"
b100100 ,"
b0 +"
b101000 =
1J
b100100 6"
b11011 !
b11011 *
b11011 e
1"
#320
0"
#325
b10011 _
16
b0 0
b0 X
b0 E"
b10100 @
b10011 G
b1111 \
b10011 ^
b0 U
b0 :"
0/"
17"
0."
1c
b1010 P"
b1010 .
b1010 7
b1010 I"
0E
0]
b0 Z
b0 Y
b100 ?
b101000 +
b101000 F
b101000 M"
b11100 !
b11100 *
b11100 e
b101000000000000010010011 h
b11111111100111111111000001101111 f
b0 g
b1 3
b1 F"
b1 3"
b1010 0"
b10011 1"
b10100 k
1n
0}
0M
b111 l
b0 s
b11111111111111111111111111111000 -
b11111111111111111111111111111000 j
b0 z
1""
1!"
b0 )"
b0 '"
b0 {
b100000 W
b100000 >
b100100 $"
b101000 ,"
b10011 +"
b101100 =
1J
b101000 6"
1"
#330
0"
#335
b11000 @
b1 \
1,
b0 P"
b11111111111111111111111111111000 .
b11111111111111111111111111111000 7
b11111111111111111111111111111000 I"
1E
1]
11
b0 +
b0 F
b0 M"
b101000000000000010010011 i
b11111111100111111111000001101111 h
b0 f
b10011 g
b0 3
b0 F"
b0 3"
b11111111111111111111111111111000 0"
b100000 k
0n
1M
b0 l
1q
1p
1v
b0 -
b0 j
0""
0!"
b100100 W
b100100 >
b101000 $"
b101100 ,"
b11000 =
0J
b10100 6"
b11101 !
b11101 *
b11101 e
1"
#340
0"
