sim/lw_sw.vcd
$date
	Fri Nov 14 01:27:35 2025
$end
$version
	Icarus Verilog
$end
$timescale
	1ps
$end
$scope module lw_sw_tb $end
$var wire 4 ! mem_wstrb [3:0] $end
$var wire 32 " mem_wdata [31:0] $end
$var wire 1 # mem_rstrb $end
$var wire 32 $ mem_addr [31:0] $end
$var wire 32 % cycle [31:0] $end
$var parameter 32 & DATA_WORD $end
$var reg 1 ' clk $end
$var reg 32 ( mem_rdata [31:0] $end
$var reg 1 ) rst $end
$var integer 32 * i [31:0] $end
$var integer 32 + idx [31:0] $end
$scope module dut $end
$var wire 1 , branch_taken $end
$var wire 1 ' clk $end
$var wire 32 - forward_data_mem [31:0] $end
$var wire 32 . forward_data_wb [31:0] $end
$var wire 32 / imem_addr [31:0] $end
$var wire 32 0 imem_rdata [31:0] $end
$var wire 1 1 imem_rstrb $end
$var wire 32 2 instruction_from_mem [31:0] $end
$var wire 32 3 jalr_target_calc [31:0] $end
$var wire 1 4 mem_access_in_mem_stage $end
$var wire 32 5 mem_rdata [31:0] $end
$var wire 1 # mem_rstrb $end
$var wire 1 6 mem_to_reg_wb $end
$var wire 32 7 mem_wdata [31:0] $end
$var wire 5 8 rd_wb [4:0] $end
$var wire 1 9 reg_write_wb $end
$var wire 1 ) rst $end
$var wire 1 : take_branch_condition $end
$var wire 1 ; zero_flag $end
$var wire 32 < write_data_to_reg [31:0] $end
$var wire 32 = wb_data [31:0] $end
$var wire 32 > store_rs2_forwarded [31:0] $end
$var wire 5 ? rs2_id [4:0] $end
$var wire 32 @ rs2_data [31:0] $end
$var wire 5 A rs1_id [4:0] $end
$var wire 32 B rs1_data [31:0] $end
$var wire 5 C rd_id [4:0] $end
$var wire 32 D pcplus4_if [31:0] $end
$var wire 32 E pc_ex [31:0] $end
$var wire 5 F opcode_id [4:0] $end
$var wire 32 G next_pc [31:0] $end
$var wire 4 H mem_wstrb [3:0] $end
$var wire 1 I mem_halfwordAccess_mem $end
$var wire 1 J mem_byteAccess_mem $end
$var wire 32 K mem_addr [31:0] $end
$var wire 32 L load_data_formatted [31:0] $end
$var wire 1 M is_jalr_id $end
$var wire 1 N is_jal_id $end
$var wire 1 O is_instruction_fetch $end
$var wire 1 P is_btype_id $end
$var wire 1 Q is_bne $end
$var wire 1 R is_beq $end
$var wire 32 S imm_u [31:0] $end
$var wire 32 T imm_s [31:0] $end
$var wire 32 U imm_j [31:0] $end
$var wire 32 V imm_i [31:0] $end
$var wire 32 W imm_b [31:0] $end
$var wire 7 X funct7_id [6:0] $end
$var wire 3 Y funct3_id [2:0] $end
$var wire 32 Z forwarded_alu_in2 [31:0] $end
$var wire 32 [ forwarded_alu_in1 [31:0] $end
$var wire 32 \ branch_target_ex [31:0] $end
$var wire 32 ] alu_result [31:0] $end
$var wire 32 ^ alu_input_b [31:0] $end
$var wire 32 _ alu_in2_source_select [31:0] $end
$var wire 32 ` alu_in1_source_select [31:0] $end
$var wire 1 a LOAD_sign_mem $end
$var wire 16 b LOAD_halfword_mem [15:0] $end
$var wire 8 c LOAD_byte_mem [7:0] $end
$var reg 3 d ForwardA [2:0] $end
$var reg 3 e ForwardB [2:0] $end
$var reg 4 f alu_op_ctrl [3:0] $end
$var reg 1 g alusrc_ctrl $end
$var reg 2 h ctrl_alu_in1_src [1:0] $end
$var reg 32 i cycle [31:0] $end
$var reg 32 j debug_ex_instruction [31:0] $end
$var reg 32 k debug_id_instruction [31:0] $end
$var reg 32 l debug_mem_instruction [31:0] $end
$var reg 32 m debug_wb_instruction [31:0] $end
$var reg 32 n ex_mem_alu_result [31:0] $end
$var reg 32 o ex_mem_branch_target [31:0] $end
$var reg 3 p ex_mem_funct3 [2:0] $end
$var reg 1 q ex_mem_isBtype $end
$var reg 1 r ex_mem_isJAL $end
$var reg 1 s ex_mem_isJALR $end
$var reg 1 t ex_mem_mem_read $end
$var reg 1 u ex_mem_mem_to_reg $end
$var reg 1 v ex_mem_mem_write $end
$var reg 32 w ex_mem_pcplus4 [31:0] $end
$var reg 32 x ex_mem_rd_addr [31:0] $end
$var reg 1 y ex_mem_reg_write $end
$var reg 32 z ex_mem_rs2_data [31:0] $end
$var reg 1 { ex_mem_zero_flag $end
$var reg 2 | id_ex_alu_in1_src [1:0] $end
$var reg 4 } id_ex_alu_op [3:0] $end
$var reg 1 ~ id_ex_alusrc $end
$var reg 3 !" id_ex_funct3 [2:0] $end
$var reg 32 "" id_ex_immediate [31:0] $end
$var reg 1 #" id_ex_isBtype_reg $end
$var reg 1 $" id_ex_isJAL $end
$var reg 1 %" id_ex_isJALR $end
$var reg 1 &" id_ex_mem_read $end
$var reg 1 '" id_ex_mem_to_reg $end
$var reg 1 (" id_ex_mem_write $end
$var reg 32 )" id_ex_pcplus4 [31:0] $end
$var reg 5 *" id_ex_rd_addr [4:0] $end
$var reg 1 +" id_ex_reg_write $end
$var reg 5 ," id_ex_rs1_addr [4:0] $end
$var reg 32 -" id_ex_rs1_data [31:0] $end
$var reg 5 ." id_ex_rs2_addr [4:0] $end
$var reg 32 /" id_ex_rs2_data [31:0] $end
$var reg 32 0" if_id_instruction [31:0] $end
$var reg 32 1" if_id_pcplus4 [31:0] $end
$var reg 32 2" immediate_id [31:0] $end
$var reg 1 3" mem_read_ctrl $end
$var reg 1 4" mem_to_reg_ctrl $end
$var reg 32 5" mem_wb_alu_result [31:0] $end
$var reg 1 6" mem_wb_isJAL $end
$var reg 1 7" mem_wb_isJALR $end
$var reg 32 8" mem_wb_mem_data [31:0] $end
$var reg 1 9" mem_wb_mem_to_reg $end
$var reg 32 :" mem_wb_pcplus4 [31:0] $end
$var reg 5 ;" mem_wb_rd_addr [4:0] $end
$var reg 1 9 mem_wb_reg_write $end
$var reg 1 <" mem_write_ctrl $end
$var reg 32 =" pc_reg [31:0] $end
$var reg 1 >" reg_write_ctrl $end
$scope module alu_inst $end
$var wire 4 ?" ALUOp [3:0] $end
$var wire 32 @" alu_in1 [31:0] $end
$var wire 32 A" alu_in2 [31:0] $end
$var wire 1 ; zero_flag $end
$var parameter 4 B" ALU_ADD $end
$var parameter 4 C" ALU_AND $end
$var parameter 4 D" ALU_OR $end
$var parameter 4 E" ALU_SLL $end
$var parameter 4 F" ALU_SLT $end
$var parameter 4 G" ALU_SLTU $end
$var parameter 4 H" ALU_SRA $end
$var parameter 4 I" ALU_SRL $end
$var parameter 4 J" ALU_SUB $end
$var parameter 4 K" ALU_XOR $end
$var reg 32 L" alu_out [31:0] $end
$upscope $end
$scope module reg_file_inst $end
$var wire 1 ' clk $end
$var wire 5 M" rd [4:0] $end
$var wire 5 N" rs1 [4:0] $end
$var wire 5 O" rs2 [4:0] $end
$var wire 1 ) rst $end
$var wire 32 P" write_data [31:0] $end
$var wire 1 9 write_en $end
$var wire 32 Q" rs2_data [31:0] $end
$var wire 32 R" rs1_data [31:0] $end
$var integer 32 S" i [31:0] $end
$upscope $end
$upscope $end
$upscope $end
$enddefinitions $end
$comment Show the parameter values. $end
$dumpall
b10 K"
b1 J"
b110 I"
b111 H"
b1001 G"
b1000 F"
b101 E"
b11 D"
b100 C"
b0 B"
b10000 &
$end
#0
$dumpvars
bx S"
b0 R"
b0 Q"
b0 P"
b0 O"
b0 N"
b0 M"
b0 L"
b0 A"
b0 @"
b0 ?"
1>"
b0 ="
0<"
b0 ;"
b0 :"
09"
b0 8"
x7"
x6"
b0 5"
04"
03"
b0 2"
b0 1"
b10011 0"
b0 /"
b0 ."
b0 -"
b0 ,"
0+"
b0 *"
b0 )"
0("
0'"
0&"
0%"
0$"
0#"
b0 ""
b0 !"
0~
b0 }
b0 |
0{
b0 z
0y
b0 x
b0 w
0v
0u
0t
0s
0r
0q
bx p
b0 o
b0 n
b10011 m
b10011 l
b10011 k
b10011 j
b0 i
b0 h
1g
b0 f
b0 e
b0 d
bx c
bx b
xa
b0 `
b0 _
b0 ^
b0 ]
b11111111111111111111111111111100 \
b0 [
b0 Z
b0 Y
b0 X
b0 W
b0 V
b0 U
b0 T
b0 S
xR
xQ
0P
1O
0N
0M
bx L
b0 K
xJ
xI
b0 H
b100 G
b100 F
b11111111111111111111111111111100 E
b100 D
b0 C
b0 B
b0 A
b0 @
b0 ?
b0 >
b0 =
b0 <
1;
0:
09
b0 8
b0 7
06
bx 5
04
b0 3
bx 2
z1
bz 0
bz /
b0 .
b0 -
x,
bx +
b100000000 *
1)
bx (
0'
b0 %
b0 $
1#
b0 "
b0 !
$end
#5000
bx10010011 L
b10010011 c
b10010011 b
b100000000000000000010010011 2
b100000000000000000010010011 (
b100000000000000000010010011 5
b100000 S"
1'
#10000
0'
#15000
b100000 S"
1'
#20000
0'
#25000
b100000 S"
1'
#30000
0'
#35000
b100000 S"
1'
#40000
0'
#45000
b100000 S"
1'
#50000
0'
#55000
b100000 S"
1'
#60000
0'
#65000
b100000 S"
1'
#70000
0'
#75000
b100000 S"
1'
#80000
0'
#85000
b100000 S"
1'
#90000
0'
#95000
b100000 S"
1'
#100000
0'
0)
#105000
b1000 G
b11111111111111111111111110010011 L
1,
1>"
1g
b1000000 2"
1J
0I
1a
b1 C
b10 X
b1000000 V
b100001000000 W
b1000001 T
b1000000 U
b100000000000000000000000000 S
b100 $
b100 K
b1 %
b1 i
07"
06"
b100000000000000000010010011 8"
b11111111111111111111111111111100 o
1R
0Q
b0 p
1{
1+"
1~
b100 1"
b100000000000000000010010011 0"
b1000 D
1O
b100 ="
1'
#110000
0'
#115000
b11 L
b11 c
0;
b1000000 3
b1000000 ]
b1000000 L"
b1100 G
b1010000100000011 b
b1000000 Z
b1000000 A"
b1000000 _
b1000000 ^
b1000 $
b1000 K
b1010000100000011 2
b1010000100000011 (
b1010000100000011 5
b100000000000000000010010011 k
1y
b1 *"
b1000000 ""
b1000000 \
b0 E
b100 )"
b1000 1"
b1100 D
1O
b1000 ="
b10 %
b10 i
1'
#120000
0'
#125000
b10011 L
b10011 c
b10000 G
b10011 b
0,
14"
13"
1>"
1g
b0 2"
b0 F
b10 C
b1 A
b1 N"
b10 Y
b0 X
b0 V
b10 W
b10 T
b1010000000000000 U
b1010000000000000 S
b1100 $
b1100 K
b10011 2
b10011 (
b10011 5
b11 %
b11 i
b100000000000000000010010011 j
b100 w
19
b1010000100000011 8"
b1000000 o
0{
b1 x
b1000000 -
b1000000 n
b1000100 \
b100 E
b1000 )"
b1100 1"
b1010000100000011 0"
b10000 D
1O
b1100 ="
1'
#130000
0'
#135000
b1000000 [
b1000000 @"
b1000000 .
b1000000 <
b1000000 P"
0;
b1000000 3
b1000000 ]
b1000000 L"
b10100 G
b100010011 b
b1000000 =
b0 Z
b0 A"
04"
1>"
03"
1g
b10 d
b0 _
b0 ^
b100 F
b0 C
b0 A
b0 N"
b0 Y
b0 W
b0 T
b0 U
b0 S
b10000 $
b10000 K
b100010000000100010011 2
b100010000000100010011 (
b100010000000100010011 5
b100000000000000000010010011 l
b1010000100000011 k
b100 :"
b1000 w
b1 8
b1 ;"
b1 M"
b1000000 5"
b10011 8"
b1000100 o
b10 !"
1'"
1&"
b10 *"
b1 ,"
b0 ""
b1000 \
b1000 E
b1100 )"
b10000 1"
b10011 0"
b10100 D
1O
b10000 ="
b100 %
b100 i
1'
#140000
0'
#145000
b100011 c
1;
b0 3
b0 ]
b0 L"
b11000 G
b1010000000100011 b
b1000001010000000100011 L
b0 [
b0 @"
b1000000 @
b1000000 Q"
b1 2"
0J
14
b0 d
b10 C
b10 A
b10 N"
b1 ?
b1 O"
b1 V
b10 W
b10 T
b10000100000000000 U
b100010000000000000000 S
b1000000 $
b1000000 K
b1000001010000000100011 2
b1000001010000000100011 (
b1000001010000000100011 5
b101 %
b101 i
b100000000000000000010010011 m
b1010000100000011 j
b10011 k
b1000 :"
b1100 w
b100010000000100010011 8"
b1000 o
0R
b10 p
1u
1t
b10 x
b0 !"
0'"
0&"
b0 *"
b0 ,"
b1100 \
b1100 E
b10000 )"
b10100 1"
b100010000000100010011 0"
b11000 D
0O
b10100 ="
1'
#150000
0'
#155000
b1111000 c
b1000001010000000100011 @
b1000001010000000100011 Q"
0;
b1000001010000000100100 3
b1000001010000000100100 ]
b1000001010000000100100 L"
b1000000 B
b1000000 R"
b11100 G
b101011001111000 b
b1000001010000000100011 =
b1111000 L
1O
1,
b1000001010000000100011 [
b1000001010000000100011 @"
b1 Z
b1 A"
b1000000 >
1<"
0>"
1g
b0 2"
b1000001010000000100011 .
b1000001010000000100011 <
b1000001010000000100011 P"
1J
04
b11000 $
b11000 K
b1 d
b1 _
b1 ^
b1000 F
b0 C
b1 A
b1 N"
b10 ?
b10 O"
b10 Y
b10 V
b0 W
b0 T
b1010000000000010 U
b1000001010000000000000 S
b10010001101000101011001111000 2
b10010001101000101011001111000 (
b10010001101000101011001111000 5
b1010000100000011 l
b10011 j
b100010000000100010011 k
b1100 :"
b10000 w
16
19"
b10 8
b10 ;"
b10 M"
b1000001010000000100011 8"
b1100 o
1R
b0 p
0u
0t
1{
b0 x
b0 -
b0 n
b10 *"
b1 ."
b10 ,"
b1 ""
b1000000 /"
b10001 \
b10000 E
b10100 )"
b11000 1"
b1000001010000000100011 0"
b11100 D
b11000 ="
b110 %
b110 i
1'
#160000
0'
#165000
b10011 L
b10011 c
b1000001010000000100100 Z
b1000001010000000100100 A"
b0 @
b0 Q"
b0 .
b0 <
b0 P"
b1000001010000001100100 3
b1000001010000001100100 ]
b1000001010000001100100 L"
b1000000 `
b0 B
b0 R"
b100000 G
b10011 b
b0 =
0,
b1000000 [
b1000000 @"
b1000001010000000100100 >
0<"
0g
b100100011 2"
b10 e
b0 d
b0 _
b0 ^
b11110 F
b1100 C
b1000 A
b1000 N"
b11 ?
b11 O"
b101 Y
b1001 X
b100100011 V
b100101100 W
b100101100 T
b1000101100100100010 U
b10010001101000101000000000000 S
b11100 $
b11100 K
b10011 2
b10011 (
b10011 5
b111 %
b111 i
b1010000100000011 m
b10011 l
b100010000000100010011 j
b1000001010000000100011 k
b10000 :"
b10100 w
06
09"
b0 8
b0 ;"
b0 M"
b0 5"
b10010001101000101011001111000 8"
b10001 o
0{
b10 x
b1000000 "
b1000000 7
b1000000 z
b1000001010000000100100 -
b1000001010000000100100 n
b10 !"
0+"
1("
b0 *"
b10 ."
b1 ,"
b0 ""
b1000001010000000100011 /"
b1000000 -"
b10100 \
b10100 E
b11000 )"
b11100 1"
b10010001101000101011001111000 0"
b100000 D
1O
b11100 ="
1'
#170000
0'
#175000
1;
b0 [
b0 @"
b1000001010000000100100 .
b1000001010000000100100 <
b1000001010000000100100 P"
b0 3
b0 ]
b0 L"
b0 `
b100100 G
b1000001010000000100100 =
0#
b0 >
b0 Z
b0 A"
1g
1>"
b0 2"
0J
b1111 !
b1111 H
14
b0 e
b100 F
b0 C
b0 A
b0 N"
b0 ?
b0 O"
b0 Y
b0 X
b0 V
b0 W
b0 T
b0 U
b0 S
b1000001010000001100100 $
b1000001010000001100100 K
b10011 m
b100010000000100010011 l
b1000001010000000100011 j
b10010001101000101011001111000 k
b10100 :"
b11000 w
b10 8
b10 ;"
b10 M"
b1000001010000000100100 5"
b10011 8"
b10100 o
0R
b10 p
0y
1v
b0 x
b1000001010000000100100 "
b1000001010000000100100 7
b1000001010000000100100 z
b1000001010000001100100 -
b1000001010000001100100 n
b101 !"
0("
0~
b1100 *"
b11 ."
b1000 ,"
b100100011 ""
b0 /"
b0 -"
b100111011 \
b11000 E
b11100 )"
b100000 1"
b10011 0"
b100100 D
0O
b100000 ="
b1000 %
b1000 i
1'
#180000
0'
#185000
b1000001010000001100100 .
b1000001010000001100100 <
b1000001010000001100100 P"
b101000 G
b1000001010000001100100 =
1O
1#
1I
0a
b0 !
b0 H
04
b100100 $
b100100 K
b1001 %
b1001 i
b100010000000100010011 m
b1000001010000000100011 l
b10010001101000101011001111000 j
b10011 k
b11000 :"
b11100 w
09
b0 8
b0 ;"
b0 M"
b1000001010000001100100 5"
b100111011 o
b101 p
0v
1{
b1100 x
b0 "
b0 7
b0 z
b0 -
b0 n
b0 !"
1+"
1~
b0 *"
b0 ."
b0 ,"
b0 ""
b11100 \
b11100 E
b100000 )"
b100100 1"
b101000 D
b100100 ="
b11001 +
1'
#190000
0'
#195000
b0 .
b0 <
b0 P"
b101100 G
b0 =
1,
1J
0I
1a
b101000 $
b101000 K
b1000001010000000100011 m
b10010001101000101011001111000 l
b10011 j
b11100 :"
b100000 w
b1100 8
b1100 ;"
b1100 M"
b0 5"
b11100 o
1R
b0 p
1y
b0 x
b100000 \
b100000 E
b100100 )"
b101000 1"
b101100 D
1O
b101000 ="
b1010 %
b1010 i
1'
#200000
0'
#205000
b110000 G
b101100 $
b101100 K
b1011 %
b1011 i
b10010001101000101011001111000 m
b10011 l
b100000 :"
b100100 w
19
b0 8
b0 ;"
b0 M"
b100000 o
b100100 \
b100100 E
b101000 )"
b101100 1"
b110000 D
1O
b101100 ="
1'
#210000
0'
#215000
b110100 G
b110000 $
b110000 K
b10011 m
b100100 :"
b101000 w
b100100 o
b101000 \
b101000 E
b101100 )"
b110000 1"
b110100 D
1O
b110000 ="
b1100 %
b1100 i
1'
#220000
0'
#225000
b111000 G
b110100 $
b110100 K
b1101 %
b1101 i
b101000 :"
b101100 w
b101000 o
b101100 \
b101100 E
b110000 )"
b110100 1"
b111000 D
1O
b110100 ="
1'
#230000
0'
#235000
b111100 G
b111000 $
b111000 K
b101100 :"
b110000 w
b101100 o
b110000 \
b110000 E
b110100 )"
b111000 1"
b111100 D
1O
b111000 ="
b1110 %
b1110 i
1'
#240000
0'
#245000
b1000000 G
b111100 $
b111100 K
b1111 %
b1111 i
b110000 :"
b110100 w
b110000 o
b110100 \
b110100 E
b111000 )"
b111100 1"
b1000000 D
1O
b111100 ="
1'
#250000
0'
#255000
b1000100 G
b1000000 $
b1000000 K
b110100 :"
b111000 w
b110100 o
b111000 \
b111000 E
b111100 )"
b1000000 1"
b1000100 D
1O
b1000000 ="
b10000 %
b10000 i
1'
#260000
0'
#265000
b1111000 L
b1111000 c
b1001000 G
b101011001111000 b
b1000100 $
b1000100 K
b10010001101000101011001111000 2
b10010001101000101011001111000 (
b10010001101000101011001111000 5
b10001 %
b10001 i
b111000 :"
b111100 w
b111000 o
b111100 \
b111100 E
b1000000 )"
b1000100 1"
b1001000 D
1O
b1000100 ="
1'
#270000
0'
#275000
b10011 L
b10011 c
b1001100 G
b10011 b
0>"
0g
b100100011 2"
b11110 F
b1100 C
b1000 A
b1000 N"
b11 ?
b11 O"
b101 Y
b1001 X
b100100011 V
b100101100 W
b100101100 T
b1000101100100100010 U
b10010001101000101000000000000 S
b1001000 $
b1001000 K
b10011 2
b10011 (
b10011 5
b111100 :"
b1000000 w
b10010001101000101011001111000 8"
b111100 o
b1000000 \
b1000000 E
b1000100 )"
b1001000 1"
b10010001101000101011001111000 0"
b1001100 D
1O
b1001000 ="
b10010 %
b10010 i
1'
#280000
0'
#285000
b1010000 G
1g
1>"
b0 2"
b100 F
b0 C
b0 A
b0 N"
b0 ?
b0 O"
b0 Y
b0 X
b0 V
b0 W
b0 T
b0 U
b0 S
b1001100 $
b1001100 K
b10011 %
b10011 i
b10010001101000101011001111000 k
b1000000 :"
b1000100 w
b10011 8"
b1000000 o
b101 !"
0+"
0~
b1100 *"
b11 ."
b1000 ,"
b100100011 ""
b101100111 \
b1000100 E
b1001000 )"
b1001100 1"
b10011 0"
b1010000 D
1O
b1001100 ="
1'
#290000
0'
#295000
b1010100 G
0,
0J
1I
0a
b1010000 $
b1010000 K
b10010001101000101011001111000 j
b10011 k
b1000100 :"
b1001000 w
b101100111 o
0R
b101 p
0y
b1100 x
b0 !"
1+"
1~
b0 *"
b0 ."
b0 ,"
b0 ""
b1001000 \
b1001000 E
b1001100 )"
b1010000 1"
b1010100 D
1O
b1010000 ="
b10100 %
b10100 i
1'
#300000
0'
#305000
b1011000 G
1,
1J
0I
1a
b1010100 $
b1010100 K
b10101 %
b10101 i
b10010001101000101011001111000 l
b10011 j
b1001000 :"
b1001100 w
09
b1100 8
b1100 ;"
b1100 M"
b1001000 o
1R
b0 p
1y
b0 x
b1001100 \
b1001100 E
b1010000 )"
b1010100 1"
b1011000 D
1O
b1010100 ="
1'
#310000
0'
#315000
b1011100 G
b1011000 $
b1011000 K
b10010001101000101011001111000 m
b10011 l
b1001100 :"
b1010000 w
19
b0 8
b0 ;"
b0 M"
b1001100 o
b1010000 \
b1010000 E
b1010100 )"
b1011000 1"
b1011100 D
1O
b1011000 ="
b10110 %
b10110 i
1'
#320000
0'
#325000
b1100000 G
b1011100 $
b1011100 K
b10111 %
b10111 i
b10011 m
b1010000 :"
b1010100 w
b1010000 o
b1010100 \
b1010100 E
b1011000 )"
b1011100 1"
b1100000 D
1O
b1011100 ="
1'
#330000
0'
#335000
b1100100 G
b1100000 $
b1100000 K
b1010100 :"
b1011000 w
b1010100 o
b1011000 \
b1011000 E
b1011100 )"
b1100000 1"
b1100100 D
1O
b1100000 ="
b11000 %
b11000 i
1'
#340000
0'
#345000
b1101000 G
b1100100 $
b1100100 K
b11001 %
b11001 i
b1011000 :"
b1011100 w
b1011000 o
b1011100 \
b1011100 E
b1100000 )"
b1100100 1"
b1101000 D
1O
b1100100 ="
1'
#350000
0'
#355000
b100100 L
b100100 c
b1101100 G
b1010000000100100 b
b1101000 $
b1101000 K
b1000001010000000100100 2
b1000001010000000100100 (
b1000001010000000100100 5
b1011100 :"
b1100000 w
b1011100 o
b1100000 \
b1100000 E
b1100100 )"
b1101000 1"
b1101100 D
1O
b1101000 ="
b11010 %
b11010 i
1'
#360000
0'
#365000
b10011 L
b10011 c
b1000000 B
b1000000 R"
b1000001010000000100100 @
b1000001010000000100100 Q"
b1110000 G
b10011 b
0>"
0g
b10 2"
b1001 F
b1 A
b1 N"
b10 ?
b10 O"
b10 Y
b10 V
b1010000000000010 U
b1000001010000000000000 S
b1101100 $
b1101100 K
b10011 2
b10011 (
b10011 5
b11011 %
b11011 i
b1100000 :"
b1100100 w
b1000001010000000100100 8"
b1100000 o
b1100100 \
b1100100 E
b1101000 )"
b1101100 1"
b1000001010000000100100 0"
b1110000 D
1O
b1101100 ="
1'
#370000
0'
#375000
b1000000 [
b1000000 @"
0;
b1000001010000001100100 3
b1000001010000001100100 ]
b1000001010000001100100 L"
b1000000 `
b1110100 G
b1000001010000000100100 Z
b1000001010000000100100 A"
b1000001010000000100100 >
b0 B
b0 R"
b0 @
b0 Q"
1g
1>"
b0 2"
b1000001010000000100100 _
b1000001010000000100100 ^
b100 F
b0 A
b0 N"
b0 ?
b0 O"
b0 Y
b0 V
b0 U
b0 S
b1110000 $
b1110000 K
b1000001010000000100100 k
b1100100 :"
b1101000 w
b10011 8"
b1100100 o
b10 !"
0+"
0~
b10 ."
b1 ,"
b10 ""
b1000001010000000100100 /"
b1000000 -"
b1101010 \
b1101000 E
b1101100 )"
b1110000 1"
b10011 0"
b1110100 D
1O
b1110000 ="
b11100 %
b11100 i
1'
#380000
0'
#385000
1;
b0 [
b0 @"
b0 3
b0 ]
b0 L"
b0 `
b1111000 G
0,
b0 Z
b0 A"
b0 >
0J
b0 _
b0 ^
b1110100 $
b1110100 K
b11101 %
b11101 i
b1000001010000000100100 j
b10011 k
b1101000 :"
b1101100 w
b1101010 o
0R
b10 p
0y
0{
b1000001010000000100100 "
b1000001010000000100100 7
b1000001010000000100100 z
b1000001010000001100100 -
b1000001010000001100100 n
b0 !"
1+"
1~
b0 ."
b0 ,"
b0 ""
b0 /"
b0 -"
b1101100 \
b1101100 E
b1110000 )"
b1110100 1"
b1111000 D
1O
b1110100 ="
1'
#390000
0'
#395000
b1000001010000001100100 .
b1000001010000001100100 <
b1000001010000001100100 P"
b1111100 G
b1000001010000001100100 =
1,
1J
b1111000 $
b1111000 K
b1000001010000000100100 l
b10011 j
b1101100 :"
b1110000 w
09
b1000001010000001100100 5"
b1101100 o
1R
b0 p
1y
1{
b0 "
b0 7
b0 z
b0 -
b0 n
b1110000 \
b1110000 E
b1110100 )"
b1111000 1"
b1111100 D
1O
b1111000 ="
b11110 %
b11110 i
1'
#400000
0'
#405000
b0 .
b0 <
b0 P"
b10000000 G
b0 =
b1111100 $
b1111100 K
b11111 %
b11111 i
b1000001010000000100100 m
b10011 l
b1110000 :"
b1110100 w
19
b0 5"
b1110000 o
b1110100 \
b1110100 E
b1111000 )"
b1111100 1"
b10000000 D
1O
b1111100 ="
1'
#410000
0'
#415000
b10000100 G
b10000000 $
b10000000 K
b10011 m
b1110100 :"
b1111000 w
b1110100 o
b1111000 \
b1111000 E
b1111100 )"
b10000000 1"
b10000100 D
1O
b10000000 ="
b100000 %
b100000 i
1'
#420000
0'
#425000
b10001000 G
b10000100 $
b10000100 K
b100001 %
b100001 i
b1111000 :"
b1111100 w
b1111000 o
b1111100 \
b1111100 E
b10000000 )"
b10000100 1"
b10001000 D
1O
b10000100 ="
1'
#430000
0'
#435000
b10001100 G
b10001000 $
b10001000 K
b1111100 :"
b10000000 w
b1111100 o
b10000000 \
b10000000 E
b10000100 )"
b10001000 1"
b10001100 D
1O
b10001000 ="
b100010 %
b100010 i
1'
#440000
0'
#445000
b10010000 G
b10001100 $
b10001100 K
b100011 %
b100011 i
b10000000 :"
b10000100 w
b10000000 o
b10000100 \
b10000100 E
b10001000 )"
b10001100 1"
b10010000 D
1O
b10001100 ="
1'
#450000
0'
#455000
b10010100 G
b10010000 $
b10010000 K
b10000100 :"
b10001000 w
b10000100 o
b10001000 \
b10001000 E
b10001100 )"
b10010000 1"
b10010100 D
1O
b10010000 ="
b100100 %
b100100 i
1'
#460000
0'
#465000
b10011000 G
b10010100 $
b10010100 K
b100101 %
b100101 i
b10001000 :"
b10001100 w
b10001000 o
b10001100 \
b10001100 E
b10010000 )"
b10010100 1"
b10011000 D
1O
b10010100 ="
1'
#470000
0'
#475000
b10011100 G
b10011000 $
b10011000 K
b10001100 :"
b10010000 w
b10001100 o
b10010000 \
b10010000 E
b10010100 )"
b10011000 1"
b10011100 D
1O
b10011000 ="
b100110 %
b100110 i
1'
#480000
0'
#485000
b10100000 G
b10011100 $
b10011100 K
b100111 %
b100111 i
b10010000 :"
b10010100 w
b10010000 o
b10010100 \
b10010100 E
b10011000 )"
b10011100 1"
b10100000 D
1O
b10011100 ="
1'
#490000
0'
#495000
b10100100 G
b10100000 $
b10100000 K
b10010100 :"
b10011000 w
b10010100 o
b10011000 \
b10011000 E
b10011100 )"
b10100000 1"
b10100100 D
1O
b10100000 ="
b101000 %
b101000 i
1'
#500000
0'
#505000
b10101000 G
b10100100 $
b10100100 K
b101001 %
b101001 i
b10011000 :"
b10011100 w
b10011000 o
b10011100 \
b10011100 E
b10100000 )"
b10100100 1"
b10101000 D
1O
b10100100 ="
1'
#510000
0'
#515000
b10101100 G
b10101000 $
b10101000 K
b10011100 :"
b10100000 w
b10011100 o
b10100000 \
b10100000 E
b10100100 )"
b10101000 1"
b10101100 D
1O
b10101000 ="
b101010 %
b101010 i
1'
#520000
0'
#525000
b10110000 G
b10101100 $
b10101100 K
b101011 %
b101011 i
b10100000 :"
b10100100 w
b10100000 o
b10100100 \
b10100100 E
b10101000 )"
b10101100 1"
b10110000 D
1O
b10101100 ="
1'
#530000
0'
#535000
b10110100 G
b10110000 $
b10110000 K
b10100100 :"
b10101000 w
b10100100 o
b10101000 \
b10101000 E
b10101100 )"
b10110000 1"
b10110100 D
1O
b10110000 ="
b101100 %
b101100 i
1'
#540000
0'
#545000
b10111000 G
b10110100 $
b10110100 K
b101101 %
b101101 i
b10101000 :"
b10101100 w
b10101000 o
b10101100 \
b10101100 E
b10110000 )"
b10110100 1"
b10111000 D
1O
b10110100 ="
1'
#550000
0'
#555000
b10111100 G
b10111000 $
b10111000 K
b10101100 :"
b10110000 w
b10101100 o
b10110000 \
b10110000 E
b10110100 )"
b10111000 1"
b10111100 D
1O
b10111000 ="
b101110 %
b101110 i
1'
#560000
0'
#565000
b11000000 G
b10111100 $
b10111100 K
b101111 %
b101111 i
b10110000 :"
b10110100 w
b10110000 o
b10110100 \
b10110100 E
b10111000 )"
b10111100 1"
b11000000 D
1O
b10111100 ="
1'
#570000
0'
#575000
b11000100 G
b11000000 $
b11000000 K
b10110100 :"
b10111000 w
b10110100 o
b10111000 \
b10111000 E
b10111100 )"
b11000000 1"
b11000100 D
1O
b11000000 ="
b110000 %
b110000 i
1'
#580000
0'
#585000
b11001000 G
b11000100 $
b11000100 K
b110001 %
b110001 i
b10111000 :"
b10111100 w
b10111000 o
b10111100 \
b10111100 E
b11000000 )"
b11000100 1"
b11001000 D
1O
b11000100 ="
1'
#590000
0'
#595000
b11001100 G
b11001000 $
b11001000 K
b10111100 :"
b11000000 w
b10111100 o
b11000000 \
b11000000 E
b11000100 )"
b11001000 1"
b11001100 D
1O
b11001000 ="
b110010 %
b110010 i
1'
#600000
0'
#605000
b11010000 G
b11001100 $
b11001100 K
b110011 %
b110011 i
b11000000 :"
b11000100 w
b11000000 o
b11000100 \
b11000100 E
b11001000 )"
b11001100 1"
b11010000 D
1O
b11001100 ="
1'
#610000
0'
#615000
b11010100 G
b11010000 $
b11010000 K
b11000100 :"
b11001000 w
b11000100 o
b11001000 \
b11001000 E
b11001100 )"
b11010000 1"
b11010100 D
1O
b11010000 ="
b110100 %
b110100 i
1'
#620000
0'
#625000
b11011000 G
b11010100 $
b11010100 K
b110101 %
b110101 i
b11001000 :"
b11001100 w
b11001000 o
b11001100 \
b11001100 E
b11010000 )"
b11010100 1"
b11011000 D
1O
b11010100 ="
1'
#630000
0'
