sim/mem_wb_hazard_test.vcd
$date
	Wed Nov 12 10:01:04 2025
$end
$version
	Icarus Verilog
$end
$timescale
	1s
$end
$scope module top_test $end
$var wire 32 ! cycle [31:0] $end
$var reg 1 " clk $end
$var reg 11 # loc [10:0] $end
$var reg 1 $ rst $end
$var integer 32 % i [31:0] $end
$scope module dut $end
$var wire 1 " clk $end
$var wire 1 $ rst $end
$var wire 4 & wr_strobe [3:0] $end
$var wire 1 ' rstrb $end
$var wire 32 ( mem_wdata [31:0] $end
$var wire 32 ) mem_rdata [31:0] $end
$var wire 32 * cycle [31:0] $end
$var wire 32 + addr [31:0] $end
$scope module cpu0 $end
$var wire 1 , branch_taken $end
$var wire 1 " clk $end
$var wire 32 - forward_data_mem [31:0] $end
$var wire 32 . forward_data_wb [31:0] $end
$var wire 32 / imem_addr [31:0] $end
$var wire 32 0 imem_rdata [31:0] $end
$var wire 1 1 imem_rstrb $end
$var wire 32 2 instruction_from_mem [31:0] $end
$var wire 32 3 jalr_target_calc [31:0] $end
$var wire 1 4 mem_access_in_mem_stage $end
$var wire 1 ' mem_rstrb $end
$var wire 1 5 mem_to_reg_wb $end
$var wire 5 6 rd_wb [4:0] $end
$var wire 1 7 reg_write_wb $end
$var wire 1 $ rst $end
$var wire 1 8 take_branch_condition $end
$var wire 1 9 zero_flag $end
$var wire 32 : write_data_to_reg [31:0] $end
$var wire 32 ; wb_data [31:0] $end
$var wire 5 < rs2_id [4:0] $end
$var wire 32 = rs2_data [31:0] $end
$var wire 5 > rs1_id [4:0] $end
$var wire 32 ? rs1_data [31:0] $end
$var wire 5 @ rd_id [4:0] $end
$var wire 32 A pcplus4_if [31:0] $end
$var wire 32 B pc_ex [31:0] $end
$var wire 5 C opcode_id [4:0] $end
$var wire 32 D next_pc [31:0] $end
$var wire 4 E mem_wstrb [3:0] $end
$var wire 32 F mem_wdata [31:0] $end
$var wire 32 G mem_rdata [31:0] $end
$var wire 1 H mem_halfwordAccess_mem $end
$var wire 1 I mem_byteAccess_mem $end
$var wire 32 J mem_addr [31:0] $end
$var wire 32 K load_data_formatted [31:0] $end
$var wire 1 L is_jalr_id $end
$var wire 1 M is_jal_id $end
$var wire 1 N is_instruction_fetch $end
$var wire 1 O is_btype_id $end
$var wire 1 P is_bne $end
$var wire 1 Q is_beq $end
$var wire 32 R imm_u [31:0] $end
$var wire 32 S imm_s [31:0] $end
$var wire 32 T imm_j [31:0] $end
$var wire 32 U imm_i [31:0] $end
$var wire 32 V imm_b [31:0] $end
$var wire 7 W funct7_id [6:0] $end
$var wire 3 X funct3_id [2:0] $end
$var wire 32 Y forwarded_alu_in2 [31:0] $end
$var wire 32 Z forwarded_alu_in1 [31:0] $end
$var wire 32 [ branch_target_ex [31:0] $end
$var wire 32 \ alu_result [31:0] $end
$var wire 32 ] alu_input_b [31:0] $end
$var wire 32 ^ alu_in2_source_select [31:0] $end
$var wire 32 _ alu_in1_source_select [31:0] $end
$var wire 4 ` STORE_wmask_mem [3:0] $end
$var wire 1 a LOAD_sign_mem $end
$var wire 16 b LOAD_halfword_mem [15:0] $end
$var wire 8 c LOAD_byte_mem [7:0] $end
$var reg 3 d ForwardA [2:0] $end
$var reg 3 e ForwardB [2:0] $end
$var reg 4 f alu_op_ctrl [3:0] $end
$var reg 1 g alusrc_ctrl $end
$var reg 2 h ctrl_alu_in1_src [1:0] $end
$var reg 32 i cycle [31:0] $end
$var reg 32 j debug_ex_instruction [31:0] $end
$var reg 32 k debug_id_instruction [31:0] $end
$var reg 32 l debug_mem_instruction [31:0] $end
$var reg 32 m debug_wb_instruction [31:0] $end
$var reg 32 n ex_mem_alu_result [31:0] $end
$var reg 32 o ex_mem_branch_target [31:0] $end
$var reg 3 p ex_mem_funct3 [2:0] $end
$var reg 1 q ex_mem_isBtype $end
$var reg 1 r ex_mem_isJAL $end
$var reg 1 s ex_mem_isJALR $end
$var reg 1 t ex_mem_mem_read $end
$var reg 1 u ex_mem_mem_to_reg $end
$var reg 1 v ex_mem_mem_write $end
$var reg 32 w ex_mem_pcplus4 [31:0] $end
$var reg 32 x ex_mem_rd_addr [31:0] $end
$var reg 1 y ex_mem_reg_write $end
$var reg 32 z ex_mem_rs2_data [31:0] $end
$var reg 1 { ex_mem_zero_flag $end
$var reg 2 | id_ex_alu_in1_src [1:0] $end
$var reg 4 } id_ex_alu_op [3:0] $end
$var reg 1 ~ id_ex_alusrc $end
$var reg 3 !" id_ex_funct3 [2:0] $end
$var reg 32 "" id_ex_immediate [31:0] $end
$var reg 1 #" id_ex_isBtype_reg $end
$var reg 1 $" id_ex_isJAL $end
$var reg 1 %" id_ex_isJALR $end
$var reg 1 &" id_ex_mem_read $end
$var reg 1 '" id_ex_mem_to_reg $end
$var reg 1 (" id_ex_mem_write $end
$var reg 32 )" id_ex_pcplus4 [31:0] $end
$var reg 5 *" id_ex_rd_addr [4:0] $end
$var reg 1 +" id_ex_reg_write $end
$var reg 5 ," id_ex_rs1_addr [4:0] $end
$var reg 32 -" id_ex_rs1_data [31:0] $end
$var reg 5 ." id_ex_rs2_addr [4:0] $end
$var reg 32 /" id_ex_rs2_data [31:0] $end
$var reg 32 0" if_id_instruction [31:0] $end
$var reg 32 1" if_id_pcplus4 [31:0] $end
$var reg 32 2" immediate_id [31:0] $end
$var reg 1 3" mem_read_ctrl $end
$var reg 1 4" mem_to_reg_ctrl $end
$var reg 32 5" mem_wb_alu_result [31:0] $end
$var reg 1 6" mem_wb_isJAL $end
$var reg 1 7" mem_wb_isJALR $end
$var reg 32 8" mem_wb_mem_data [31:0] $end
$var reg 1 9" mem_wb_mem_to_reg $end
$var reg 32 :" mem_wb_pcplus4 [31:0] $end
$var reg 5 ;" mem_wb_rd_addr [4:0] $end
$var reg 1 <" mem_wb_reg_write $end
$var reg 1 =" mem_write_ctrl $end
$var reg 32 >" pc_reg [31:0] $end
$var reg 1 ?" reg_write_ctrl $end
$scope module alu_inst $end
$var wire 4 @" ALUOp [3:0] $end
$var wire 32 A" alu_in1 [31:0] $end
$var wire 32 B" alu_in2 [31:0] $end
$var wire 1 9 zero_flag $end
$var parameter 4 C" ALU_ADD $end
$var parameter 4 D" ALU_AND $end
$var parameter 4 E" ALU_OR $end
$var parameter 4 F" ALU_SLL $end
$var parameter 4 G" ALU_SLT $end
$var parameter 4 H" ALU_SLTU $end
$var parameter 4 I" ALU_SRA $end
$var parameter 4 J" ALU_SRL $end
$var parameter 4 K" ALU_SUB $end
$var parameter 4 L" ALU_XOR $end
$var reg 32 M" alu_out [31:0] $end
$upscope $end
$scope module reg_file_inst $end
$var wire 1 " clk $end
$var wire 5 N" rd [4:0] $end
$var wire 5 O" rs1 [4:0] $end
$var wire 5 P" rs2 [4:0] $end
$var wire 1 $ rst $end
$var wire 32 Q" write_data [31:0] $end
$var wire 1 7 write_en $end
$var wire 32 R" rs2_data [31:0] $end
$var wire 32 S" rs1_data [31:0] $end
$var integer 32 T" i [31:0] $end
$upscope $end
$upscope $end
$scope module mem0 $end
$var wire 32 U" addr [31:0] $end
$var wire 1 " clk $end
$var wire 32 V" data_in [31:0] $end
$var wire 1 ' rd_strobe $end
$var wire 1 $ rst $end
$var wire 4 W" wr_strobe [3:0] $end
$var wire 30 X" mem_loc [29:0] $end
$var parameter 32 Y" MEM_SIZE $end
$var reg 32 Z" data_out [31:0] $end
$upscope $end
$upscope $end
$upscope $end
$enddefinitions $end
$comment Show the parameter values. $end
$dumpall
b10000000000 Y"
b10 L"
b1 K"
b110 J"
b111 I"
b1001 H"
b1000 G"
b101 F"
b11 E"
b100 D"
b0 C"
$end
#0
$dumpvars
bx Z"
b0 X"
b0 W"
b0 V"
b0 U"
bx T"
b0 S"
b0 R"
b0 Q"
b0 P"
b0 O"
b0 N"
b0 M"
b0 B"
b0 A"
b0 @"
1?"
b0 >"
0="
0<"
b0 ;"
b0 :"
09"
b0 8"
x7"
x6"
b0 5"
04"
03"
b0 2"
b0 1"
b10011 0"
b0 /"
b0 ."
b0 -"
b0 ,"
0+"
b0 *"
b0 )"
0("
0'"
0&"
0%"
0$"
0#"
b0 ""
b0 !"
0~
b0 }
b0 |
0{
b0 z
0y
b0 x
b0 w
0v
0u
0t
0s
0r
0q
bx p
b0 o
b0 n
b10011 m
b10011 l
b10011 k
b10011 j
b0 i
b0 h
1g
b0 f
b0 e
b0 d
bx c
bx b
xa
bx1 `
b0 _
b0 ^
b0 ]
b0 \
b11111111111111111111111111111100 [
b0 Z
b0 Y
b0 X
b0 W
b0 V
b0 U
b0 T
b0 S
b0 R
xQ
xP
0O
1N
0M
0L
bx K
b0 J
xI
xH
bx G
b0 F
b0 E
b100 D
b100 C
b11111111111111111111111111111100 B
b100 A
b0 @
b0 ?
b0 >
b0 =
b0 <
b0 ;
b0 :
19
08
07
b0 6
05
04
b0 3
bx 2
z1
bz 0
bz /
b0 .
b0 -
x,
b0 +
b0 *
bx )
b0 (
1'
b0 &
bx %
1$
b1111101000 #
0"
b0 !
$end
#5
b10011 K
b10011 c
b10011 b
b10011 2
b10011 )
b10011 G
b10011 Z"
b100000 T"
1"
#10
0"
#15
b100000 T"
1"
#20
0"
#25
b100000 T"
1"
#30
0"
#35
b100000 T"
1"
#40
0"
#45
b100000 T"
1"
#50
0"
0$
#55
b11111111111111111111111110010011 K
b10010011 c
b1000 D
b10010011 b
b1 `
1,
b1 X"
1I
0H
1a
b100 +
b100 J
b100 U"
b101000000000000010010011 2
b101000000000000010010011 )
b101000000000000010010011 G
b101000000000000010010011 Z"
07"
06"
b10011 8"
b11111111111111111111111111111100 o
1Q
0P
b0 p
1{
1+"
1~
b100 1"
b1000 A
1N
b100 >"
b1 !
b1 *
b1 i
1"
#60
0"
#65
b10011 K
b10011 c
b1100 D
b100010011 b
b1010 2"
b10 X"
b1 @
b1010 <
b1010 P"
b1010 U
b100000000000 V
b1 S
b1010 T
b101000000000000000000000 R
b1000 +
b1000 J
b1000 U"
b1010000000000000100010011 2
b1010000000000000100010011 )
b1010000000000000100010011 G
b1010000000000000100010011 Z"
b10 !
b10 *
b10 i
b101000000000000010010011 8"
1y
b0 [
b0 B
b100 )"
b1000 1"
b101000000000000010010011 0"
b1100 A
1N
b1000 >"
1"
#70
0"
#75
b11111111111111111111111110110011 K
b10110011 c
09
b1010 3
b1010 \
b1010 M"
b10000 D
b1000000110110011 b
b1010 Y
b1010 B"
b10100 2"
b11 X"
b1010 ^
b1010 ]
b10 @
b10100 <
b10100 P"
b10100 U
b10 V
b10 S
b10100 T
b1010000000000000000000000 R
b1100 +
b1100 J
b1100 U"
b1000001000000110110011 2
b1000001000000110110011 )
b1000001000000110110011 G
b1000001000000110110011 Z"
b101000000000000010010011 k
b100 w
17
1<"
b1010000000000000100010011 8"
b0 o
b1 *"
b1010 ."
b1010 ""
b1110 [
b100 B
b1000 )"
b1100 1"
b1010000000000000100010011 0"
b10000 A
1N
b1100 >"
b11 !
b11 *
b11 i
1"
#80
0"
#85
b10001 K
b10001 c
b100 `
b10100 3
b10100 \
b10100 M"
b10100 D
0,
b10001 b
b10100 Y
b10100 B"
1?"
0g
b10 2"
b100 X"
b10100 ^
b10100 ]
b1100 C
b11 @
b1 >
b1 O"
b10 <
b10 P"
b10 U
b100000000010 V
b11 S
b1000000000000010 T
b1000001000000000000000 R
b10000 +
b10000 J
b10000 U"
b100011000001000110011 2
b100011000001000110011 )
b100011000001000110011 G
b100011000001000110011 Z"
b100 !
b100 *
b100 i
b101000000000000010010011 j
b1010000000000000100010011 k
b100 :"
b1000 w
b1000001000000110110011 8"
b1110 o
0{
b1 x
b1010 -
b1010 n
b10 *"
b10100 ."
b10100 ""
b11100 [
b1000 B
b1100 )"
b10000 1"
b1000001000000110110011 0"
b10100 A
1N
b10000 >"
1"
#90
0"
#95
b11110 3
b11110 \
b11110 M"
b1010 Z
b1010 A"
b11111111111111111111111110110011 K
b10110011 c
b1010 .
b1010 :
b1010 Q"
b1 `
b11000 D
b1010 ;
b1000001010110011 b
b1 2"
b101 X"
b1 d
b10 e
b0 ^
b0 ]
b100 @
b11 >
b11 O"
b1 <
b1 P"
b1 U
b100 V
b100 S
b11000100000000000 T
b100011000000000000000 R
b10100 +
b10100 J
b10100 U"
b1000011000001010110011 2
b1000011000001010110011 )
b1000011000001010110011 G
b1000011000001010110011 Z"
b101000000000000010010011 l
b1010000000000000100010011 j
b1000001000000110110011 k
b1000 :"
b1100 w
b1 6
b1 N"
b1 ;"
b1010 5"
b100011000001000110011 8"
b11100 o
b10 x
b10100 -
b10100 n
0~
b11 *"
b10 ."
b1 ,"
b10 ""
b1110 [
b1100 B
b10000 )"
b10100 1"
b100011000001000110011 0"
b11000 A
1N
b10100 >"
b101 !
b101 *
b101 i
1"
#100
0"
#105
bx K
bx c
b10100 .
b10100 :
b10100 Q"
b100 `
09
b11110 3
b11110 \
b11110 M"
b11100 D
b10100 ;
bx b
b0 Y
b0 B"
b11110 Z
b11110 A"
b10 2"
b110 X"
b0 e
b10 d
b101 @
b10 <
b10 P"
b10 U
b100000000100 V
b101 S
b11000000000000010 T
b1000011000000000000000 R
b11000 +
b11000 J
b11000 U"
bx 2
bx )
bx G
bx Z"
b110 !
b110 *
b110 i
b101000000000000010010011 m
b1010000000000000100010011 l
b1000001000000110110011 j
b100011000001000110011 k
b1100 :"
b10000 w
b10 6
b10 N"
b10 ;"
b10100 5"
b1000011000001010110011 8"
b1110 o
b11 x
b11110 -
b11110 n
b100 *"
b1 ."
b11 ,"
b1 ""
b10001 [
b10000 B
b10100 )"
b11000 1"
b1000011000001010110011 0"
b11100 A
1N
b11000 >"
1"
#110
0"
#115
b11110 3
b11110 \
b11110 M"
b11110 .
b11110 :
b11110 Q"
b11110 Z
b11110 A"
b100000 D
b11110 ;
bx ?
bx S"
0?"
bx 2"
b111 X"
bx =
bx R"
b1 d
xL
xM
xO
bx C
bx @
bx >
bx O"
bx <
bx P"
bx X
bx W
bx U
bx0 V
bx S
bx0 T
bx000000000000 R
b11100 +
b11100 J
b11100 U"
b1010000000000000100010011 m
b1000001000000110110011 l
b100011000001000110011 j
b1000011000001010110011 k
b10000 :"
b10100 w
b11 6
b11 N"
b11 ;"
b11110 5"
bx 8"
b10001 o
b100 x
b101 *"
b10 ."
b10 ""
b10110 [
b10100 B
b11000 )"
b11100 1"
bx 0"
b100000 A
1N
b11100 >"
b111 !
b111 *
b111 i
1"
#120
0"
#125
x9
bx 3
bx \
bx M"
bx _
b100100 D
bx Z
bx A"
bx Y
bx B"
b1000 X"
bx (
bx F
bx V"
b0 d
bx ^
bx ]
b100000 +
b100000 J
b100000 U"
b1000 !
b1000 *
b1000 i
b1000001000000110110011 m
b100011000001000110011 l
b1000011000001010110011 j
bx k
b10100 :"
b11000 w
b100 6
b100 N"
b100 ;"
b10110 o
x%"
x$"
x#"
b101 x
bx z
bx !"
0+"
bx *"
bx ."
bx ,"
bx ""
bx /"
bx -"
bx [
b11000 B
b11100 )"
b100000 1"
b100100 A
1N
b100000 >"
1"
#130
0"
#135
x8
bx `
x,
b1001 X"
bx D
xI
xH
xa
b100100 +
b100100 J
b100100 U"
b100011000001000110011 m
b1000011000001010110011 l
bx j
b11000 :"
b11100 w
b101 6
b101 N"
b101 ;"
bx o
xr
xs
xq
xQ
xP
bx p
0y
x{
b0xxxxx x
bx -
bx n
b11100 B
b100000 )"
b100100 1"
b101000 A
1N
b100100 >"
b1001 !
b1001 *
b1001 i
1"
#140
0"
#145
bx .
bx :
bx Q"
bx ;
bx X"
bx +
bx J
bx U"
b1010 !
b1010 *
b1010 i
b1000011000001010110011 m
bx l
x7"
x6"
b11100 :"
b100000 w
07
0<"
bx 6
bx N"
bx ;"
bx 5"
b100000 B
b100100 )"
b101000 1"
bx A
xN
bx >"
1"
#150
0"
#155
bx m
b100000 :"
b100100 w
b100100 B
b101000 )"
bx 1"
b1011 !
b1011 *
b1011 i
1"
#160
0"
#165
b1100 !
b1100 *
b1100 i
b100100 :"
b101000 w
bx B
bx )"
1"
#170
0"
#175
b101000 :"
bx w
b1101 !
b1101 *
b1101 i
1"
#180
0"
#185
b1110 !
b1110 *
b1110 i
bx :"
1"
#190
0"
#195
b1111 !
b1111 *
b1111 i
1"
#200
0"
#205
b10000 !
b10000 *
b10000 i
1"
#210
0"
#215
b10001 !
b10001 *
b10001 i
1"
#220
0"
#225
b10010 !
b10010 *
b10010 i
1"
#230
0"
#235
b10011 !
b10011 *
b10011 i
1"
#240
0"
#245
b10100 !
b10100 *
b10100 i
1"
#250
0"
#255
b10101 !
b10101 *
b10101 i
1"
#260
0"
#265
b10110 !
b10110 *
b10110 i
1"
#270
0"
#275
b10111 !
b10111 *
b10111 i
1"
#280
0"
#285
b11000 !
b11000 *
b11000 i
1"
#290
0"
#295
b11001 !
b11001 *
b11001 i
1"
#300
0"
#305
b11010 !
b11010 *
b11010 i
1"
#310
0"
#315
b11011 !
b11011 *
b11011 i
1"
#320
0"
#325
b11100 !
b11100 *
b11100 i
1"
#330
0"
#335
b11101 !
b11101 *
b11101 i
1"
#340
0"
#345
b11110 !
b11110 *
b11110 i
1"
#350
0"
#355
b11111 !
b11111 *
b11111 i
1"
#360
0"
#365
b100000 !
b100000 *
b100000 i
1"
#370
0"
#375
b100001 !
b100001 *
b100001 i
1"
#380
0"
#385
b100010 !
b100010 *
b100010 i
1"
#390
0"
#395
b100011 !
b100011 *
b100011 i
1"
#400
0"
#405
b100100 !
b100100 *
b100100 i
1"
#410
0"
#415
b100101 !
b100101 *
b100101 i
1"
#420
0"
#425
b100110 !
b100110 *
b100110 i
1"
#430
0"
#435
b100111 !
b100111 *
b100111 i
1"
#440
0"
#445
b101000 !
b101000 *
b101000 i
1"
#450
0"
#455
b101001 !
b101001 *
b101001 i
1"
#460
0"
#465
b101010 !
b101010 *
b101010 i
1"
#470
0"
#475
b101011 !
b101011 *
b101011 i
1"
#480
0"
#485
b101100 !
b101100 *
b101100 i
1"
#490
0"
#495
b101101 !
b101101 *
b101101 i
1"
#500
0"
#505
b101110 !
b101110 *
b101110 i
1"
#510
0"
#515
b101111 !
b101111 *
b101111 i
1"
#520
0"
#525
b110000 !
b110000 *
b110000 i
1"
#530
0"
#535
b110001 !
b110001 *
b110001 i
1"
#540
0"
#545
b110010 !
b110010 *
b110010 i
1"
#550
0"
#555
b110011 !
b110011 *
b110011 i
1"
#560
0"
#565
b110100 !
b110100 *
b110100 i
1"
#570
0"
#575
b110101 !
b110101 *
b110101 i
1"
#580
0"
#585
b110110 !
b110110 *
b110110 i
1"
#590
0"
#595
b110111 !
b110111 *
b110111 i
1"
#600
0"
#605
b111000 !
b111000 *
b111000 i
1"
#610
0"
#615
b111001 !
b111001 *
b111001 i
1"
#620
0"
#625
b111010 !
b111010 *
b111010 i
1"
#630
0"
#635
b111011 !
b111011 *
b111011 i
1"
#640
0"
#645
b111100 !
b111100 *
b111100 i
1"
#650
0"
#655
b111101 !
b111101 *
b111101 i
1"
#660
0"
#665
b111110 !
b111110 *
b111110 i
1"
#670
0"
#675
b111111 !
b111111 *
b111111 i
1"
#680
0"
#685
b1000000 !
b1000000 *
b1000000 i
1"
#690
0"
#695
b1000001 !
b1000001 *
b1000001 i
1"
#700
0"
#705
b1000010 !
b1000010 *
b1000010 i
1"
#710
0"
#715
b1000011 !
b1000011 *
b1000011 i
1"
#720
0"
#725
b1000100 !
b1000100 *
b1000100 i
1"
#730
0"
#735
b1000101 !
b1000101 *
b1000101 i
1"
#740
0"
#745
b1000110 !
b1000110 *
b1000110 i
1"
#750
0"
#755
b1000111 !
b1000111 *
b1000111 i
1"
#760
0"
#765
b1001000 !
b1001000 *
b1001000 i
1"
#770
0"
#775
b1001001 !
b1001001 *
b1001001 i
1"
#780
0"
#785
b1001010 !
b1001010 *
b1001010 i
1"
#790
0"
#795
b1001011 !
b1001011 *
b1001011 i
1"
#800
0"
#805
b1001100 !
b1001100 *
b1001100 i
1"
#810
0"
#815
b1001101 !
b1001101 *
b1001101 i
1"
#820
0"
#825
b1001110 !
b1001110 *
b1001110 i
1"
#830
0"
#835
b1001111 !
b1001111 *
b1001111 i
1"
#840
0"
#845
b1010000 !
b1010000 *
b1010000 i
1"
#850
0"
#855
b1010001 !
b1010001 *
b1010001 i
1"
#860
0"
#865
b1010010 !
b1010010 *
b1010010 i
1"
#870
0"
#875
b1010011 !
b1010011 *
b1010011 i
1"
#880
0"
#885
b1010100 !
b1010100 *
b1010100 i
1"
#890
0"
#895
b1010101 !
b1010101 *
b1010101 i
1"
#900
0"
#905
b1010110 !
b1010110 *
b1010110 i
1"
#910
0"
#915
b1010111 !
b1010111 *
b1010111 i
1"
#920
0"
#925
b1011000 !
b1011000 *
b1011000 i
1"
#930
0"
#935
b1011001 !
b1011001 *
b1011001 i
1"
#940
0"
#945
b1011010 !
b1011010 *
b1011010 i
1"
#950
0"
#955
b1011011 !
b1011011 *
b1011011 i
1"
#960
0"
#965
b1011100 !
b1011100 *
b1011100 i
1"
#970
0"
#975
b1011101 !
b1011101 *
b1011101 i
1"
#980
0"
#985
b1011110 !
b1011110 *
b1011110 i
1"
#990
0"
#995
b1011111 !
b1011111 *
b1011111 i
1"
#1000
0"
#1005
b1100000 !
b1100000 *
b1100000 i
1"
#1010
0"
#1015
b1100001 !
b1100001 *
b1100001 i
1"
#1020
0"
#1025
b1100010 !
b1100010 *
b1100010 i
1"
#1030
0"
#1035
b1100011 !
b1100011 *
b1100011 i
1"
#1040
0"
#1045
b1100100 !
b1100100 *
b1100100 i
1"
#1050
0"
#1055
b1100101 !
b1100101 *
b1100101 i
1"
#1060
0"
#1065
b1100110 !
b1100110 *
b1100110 i
1"
#1070
0"
#1075
b1100111 !
b1100111 *
b1100111 i
1"
#1080
0"
#1085
b1101000 !
b1101000 *
b1101000 i
1"
#1090
0"
#1095
b1101001 !
b1101001 *
b1101001 i
1"
#1100
0"
#1105
b1101010 !
b1101010 *
b1101010 i
1"
#1110
0"
#1115
b1101011 !
b1101011 *
b1101011 i
1"
#1120
0"
#1125
b1101100 !
b1101100 *
b1101100 i
1"
#1130
0"
#1135
b1101101 !
b1101101 *
b1101101 i
1"
#1140
0"
#1145
b1101110 !
b1101110 *
b1101110 i
1"
#1150
0"
#1155
b1101111 !
b1101111 *
b1101111 i
1"
#1160
0"
#1165
b1110000 !
b1110000 *
b1110000 i
1"
#1170
0"
#1175
b1110001 !
b1110001 *
b1110001 i
1"
#1180
0"
#1185
b1110010 !
b1110010 *
b1110010 i
1"
#1190
0"
#1195
b1110011 !
b1110011 *
b1110011 i
1"
#1200
0"
#1205
b1110100 !
b1110100 *
b1110100 i
1"
#1210
0"
#1215
b1110101 !
b1110101 *
b1110101 i
1"
#1220
0"
#1225
b1110110 !
b1110110 *
b1110110 i
1"
#1230
0"
#1235
b1110111 !
b1110111 *
b1110111 i
1"
#1240
0"
#1245
b1111000 !
b1111000 *
b1111000 i
1"
#1250
0"
#1255
b1111001 !
b1111001 *
b1111001 i
1"
#1260
0"
#1265
b1111010 !
b1111010 *
b1111010 i
1"
#1270
0"
#1275
b1111011 !
b1111011 *
b1111011 i
1"
#1280
0"
#1285
b1111100 !
b1111100 *
b1111100 i
1"
#1290
0"
#1295
b1111101 !
b1111101 *
b1111101 i
1"
#1300
0"
#1305
b1111110 !
b1111110 *
b1111110 i
1"
#1310
0"
#1315
b1111111 !
b1111111 *
b1111111 i
1"
#1320
0"
#1325
b10000000 !
b10000000 *
b10000000 i
1"
#1330
0"
#1335
b10000001 !
b10000001 *
b10000001 i
1"
#1340
0"
#1345
b10000010 !
b10000010 *
b10000010 i
1"
#1350
0"
#1355
b10000011 !
b10000011 *
b10000011 i
1"
#1360
0"
#1365
b10000100 !
b10000100 *
b10000100 i
1"
#1370
0"
#1375
b10000101 !
b10000101 *
b10000101 i
1"
#1380
0"
#1385
b10000110 !
b10000110 *
b10000110 i
1"
#1390
0"
#1395
b10000111 !
b10000111 *
b10000111 i
1"
#1400
0"
#1405
b10001000 !
b10001000 *
b10001000 i
1"
#1410
0"
#1415
b10001001 !
b10001001 *
b10001001 i
1"
#1420
0"
#1425
b10001010 !
b10001010 *
b10001010 i
1"
#1430
0"
#1435
b10001011 !
b10001011 *
b10001011 i
1"
#1440
0"
#1445
b10001100 !
b10001100 *
b10001100 i
1"
#1450
0"
#1455
b10001101 !
b10001101 *
b10001101 i
1"
#1460
0"
#1465
b10001110 !
b10001110 *
b10001110 i
1"
#1470
0"
#1475
b10001111 !
b10001111 *
b10001111 i
1"
#1480
0"
#1485
b10010000 !
b10010000 *
b10010000 i
1"
#1490
0"
#1495
b10010001 !
b10010001 *
b10010001 i
1"
#1500
0"
#1505
b10010010 !
b10010010 *
b10010010 i
1"
#1510
0"
#1515
b10010011 !
b10010011 *
b10010011 i
1"
#1520
0"
#1525
b10010100 !
b10010100 *
b10010100 i
1"
#1530
0"
#1535
b10010101 !
b10010101 *
b10010101 i
1"
#1540
0"
#1545
b10010110 !
b10010110 *
b10010110 i
1"
#1550
0"
#1555
b10010111 !
b10010111 *
b10010111 i
1"
#1560
0"
#1565
b10011000 !
b10011000 *
b10011000 i
1"
#1570
0"
#1575
b10011001 !
b10011001 *
b10011001 i
1"
#1580
0"
#1585
b10011010 !
b10011010 *
b10011010 i
1"
#1590
0"
#1595
b10011011 !
b10011011 *
b10011011 i
1"
#1600
0"
#1605
b10011100 !
b10011100 *
b10011100 i
1"
#1610
0"
#1615
b10011101 !
b10011101 *
b10011101 i
1"
#1620
0"
#1625
b10011110 !
b10011110 *
b10011110 i
1"
#1630
0"
#1635
b10011111 !
b10011111 *
b10011111 i
1"
#1640
0"
#1645
b10100000 !
b10100000 *
b10100000 i
1"
#1650
0"
#1655
b10100001 !
b10100001 *
b10100001 i
1"
#1660
0"
#1665
b10100010 !
b10100010 *
b10100010 i
1"
#1670
0"
#1675
b10100011 !
b10100011 *
b10100011 i
1"
#1680
0"
#1685
b10100100 !
b10100100 *
b10100100 i
1"
#1690
0"
#1695
b10100101 !
b10100101 *
b10100101 i
1"
#1700
0"
#1705
b10100110 !
b10100110 *
b10100110 i
1"
#1710
0"
#1715
b10100111 !
b10100111 *
b10100111 i
1"
#1720
0"
#1725
b10101000 !
b10101000 *
b10101000 i
1"
#1730
0"
#1735
b10101001 !
b10101001 *
b10101001 i
1"
#1740
0"
#1745
b10101010 !
b10101010 *
b10101010 i
1"
#1750
0"
#1755
b10101011 !
b10101011 *
b10101011 i
1"
#1760
0"
#1765
b10101100 !
b10101100 *
b10101100 i
1"
#1770
0"
#1775
b10101101 !
b10101101 *
b10101101 i
1"
#1780
0"
#1785
b10101110 !
b10101110 *
b10101110 i
1"
#1790
0"
#1795
b10101111 !
b10101111 *
b10101111 i
1"
#1800
0"
#1805
b10110000 !
b10110000 *
b10110000 i
1"
#1810
0"
#1815
b10110001 !
b10110001 *
b10110001 i
1"
#1820
0"
#1825
b10110010 !
b10110010 *
b10110010 i
1"
#1830
0"
#1835
b10110011 !
b10110011 *
b10110011 i
1"
#1840
0"
#1845
b10110100 !
b10110100 *
b10110100 i
1"
#1850
0"
#1855
b10110101 !
b10110101 *
b10110101 i
1"
#1860
0"
#1865
b10110110 !
b10110110 *
b10110110 i
1"
#1870
0"
#1875
b10110111 !
b10110111 *
b10110111 i
1"
#1880
0"
#1885
b10111000 !
b10111000 *
b10111000 i
1"
#1890
0"
#1895
b10111001 !
b10111001 *
b10111001 i
1"
#1900
0"
#1905
b10111010 !
b10111010 *
b10111010 i
1"
#1910
0"
#1915
b10111011 !
b10111011 *
b10111011 i
1"
#1920
0"
#1925
b10111100 !
b10111100 *
b10111100 i
1"
#1930
0"
#1935
b10111101 !
b10111101 *
b10111101 i
1"
#1940
0"
#1945
b10111110 !
b10111110 *
b10111110 i
1"
#1950
0"
#1955
b10111111 !
b10111111 *
b10111111 i
1"
#1960
0"
#1965
b11000000 !
b11000000 *
b11000000 i
1"
#1970
0"
#1975
b11000001 !
b11000001 *
b11000001 i
1"
#1980
0"
#1985
b11000010 !
b11000010 *
b11000010 i
1"
#1990
0"
#1995
b11000011 !
b11000011 *
b11000011 i
1"
#2000
0"
#2005
b11000100 !
b11000100 *
b11000100 i
1"
#2010
0"
#2015
b11000101 !
b11000101 *
b11000101 i
1"
#2020
0"
#2025
b11000110 !
b11000110 *
b11000110 i
1"
#2030
0"
#2035
b11000111 !
b11000111 *
b11000111 i
1"
#2040
0"
#2045
b11001000 !
b11001000 *
b11001000 i
1"
#2050
0"
#2055
b11001001 !
b11001001 *
b11001001 i
1"
#2060
0"
#2065
b11001010 !
b11001010 *
b11001010 i
1"
#2070
0"
#2075
b11001011 !
b11001011 *
b11001011 i
1"
#2080
0"
#2085
b11001100 !
b11001100 *
b11001100 i
1"
#2090
0"
#2095
b11001101 !
b11001101 *
b11001101 i
1"
#2100
0"
#2105
b11001110 !
b11001110 *
b11001110 i
1"
#2110
0"
#2115
b11001111 !
b11001111 *
b11001111 i
1"
#2120
0"
#2125
b11010000 !
b11010000 *
b11010000 i
1"
#2130
0"
#2135
b11010001 !
b11010001 *
b11010001 i
1"
#2140
0"
#2145
b11010010 !
b11010010 *
b11010010 i
1"
#2150
0"
#2155
b11010011 !
b11010011 *
b11010011 i
1"
#2160
0"
#2165
b11010100 !
b11010100 *
b11010100 i
1"
#2170
0"
#2175
b11010101 !
b11010101 *
b11010101 i
1"
#2180
0"
#2185
b11010110 !
b11010110 *
b11010110 i
1"
#2190
0"
#2195
b11010111 !
b11010111 *
b11010111 i
1"
#2200
0"
#2205
b11011000 !
b11011000 *
b11011000 i
1"
#2210
0"
#2215
b11011001 !
b11011001 *
b11011001 i
1"
#2220
0"
#2225
b11011010 !
b11011010 *
b11011010 i
1"
#2230
0"
