sim/test.vcd
$date
	Thu Nov 06 14:41:19 2025
$end
$version
	Icarus Verilog
$end
$timescale
	1s
$end
$scope module top_test $end
$var wire 32 ! cycle [31:0] $end
$var reg 1 " clk $end
$var reg 11 # loc [10:0] $end
$var reg 1 $ rst $end
$var integer 32 % i [31:0] $end
$scope module dut $end
$var wire 1 " clk $end
$var wire 1 $ rst $end
$var wire 4 & wr_strobe [3:0] $end
$var wire 1 ' rstrb $end
$var wire 32 ( mem_wdata [31:0] $end
$var wire 32 ) mem_rdata [31:0] $end
$var wire 32 * cycle [31:0] $end
$var wire 32 + addr [31:0] $end
$scope module cpu0 $end
$var wire 1 , branch_taken $end
$var wire 1 " clk $end
$var wire 32 - forward_data_mem [31:0] $end
$var wire 32 . forward_data_wb [31:0] $end
$var wire 32 / imem_addr [31:0] $end
$var wire 32 0 imem_rdata [31:0] $end
$var wire 1 1 imem_rstrb $end
$var wire 32 2 instruction_from_mem [31:0] $end
$var wire 32 3 jalr_target_calc [31:0] $end
$var wire 1 4 mem_access_in_mem_stage $end
$var wire 1 ' mem_rstrb $end
$var wire 1 5 mem_to_reg_wb $end
$var wire 5 6 rd_wb [4:0] $end
$var wire 1 7 reg_write_wb $end
$var wire 1 $ rst $end
$var wire 1 8 take_branch_condition $end
$var wire 1 9 zero_flag $end
$var wire 32 : write_data_to_reg [31:0] $end
$var wire 32 ; wb_data [31:0] $end
$var wire 5 < rs2_id [4:0] $end
$var wire 32 = rs2_data [31:0] $end
$var wire 5 > rs1_id [4:0] $end
$var wire 32 ? rs1_data [31:0] $end
$var wire 5 @ rd_id [4:0] $end
$var wire 32 A pcplus4_if [31:0] $end
$var wire 32 B pc_ex [31:0] $end
$var wire 5 C opcode_id [4:0] $end
$var wire 32 D next_pc [31:0] $end
$var wire 4 E mem_wstrb [3:0] $end
$var wire 32 F mem_wdata [31:0] $end
$var wire 32 G mem_rdata [31:0] $end
$var wire 1 H mem_halfwordAccess_mem $end
$var wire 1 I mem_byteAccess_mem $end
$var wire 32 J mem_addr [31:0] $end
$var wire 32 K load_data_formatted [31:0] $end
$var wire 1 L is_jalr_id $end
$var wire 1 M is_jal_id $end
$var wire 1 N is_instruction_fetch $end
$var wire 1 O is_btype_id $end
$var wire 1 P is_bne $end
$var wire 1 Q is_beq $end
$var wire 32 R imm_u [31:0] $end
$var wire 32 S imm_s [31:0] $end
$var wire 32 T imm_j [31:0] $end
$var wire 32 U imm_i [31:0] $end
$var wire 32 V imm_b [31:0] $end
$var wire 7 W funct7_id [6:0] $end
$var wire 3 X funct3_id [2:0] $end
$var wire 32 Y forwarded_alu_in2 [31:0] $end
$var wire 32 Z forwarded_alu_in1 [31:0] $end
$var wire 32 [ branch_target_ex [31:0] $end
$var wire 32 \ alu_result [31:0] $end
$var wire 32 ] alu_input_b [31:0] $end
$var wire 32 ^ alu_in2_source_select [31:0] $end
$var wire 32 _ alu_in1_source_select [31:0] $end
$var wire 4 ` STORE_wmask_mem [3:0] $end
$var wire 1 a LOAD_sign_mem $end
$var wire 16 b LOAD_halfword_mem [15:0] $end
$var wire 8 c LOAD_byte_mem [7:0] $end
$var reg 3 d ForwardA [2:0] $end
$var reg 3 e ForwardB [2:0] $end
$var reg 4 f alu_op_ctrl [3:0] $end
$var reg 1 g alusrc_ctrl $end
$var reg 2 h ctrl_alu_in1_src [1:0] $end
$var reg 32 i cycle [31:0] $end
$var reg 32 j debug_ex_instruction [31:0] $end
$var reg 32 k debug_id_instruction [31:0] $end
$var reg 32 l debug_mem_instruction [31:0] $end
$var reg 32 m debug_wb_instruction [31:0] $end
$var reg 32 n ex_mem_alu_result [31:0] $end
$var reg 32 o ex_mem_branch_target [31:0] $end
$var reg 3 p ex_mem_funct3 [2:0] $end
$var reg 1 q ex_mem_isBtype $end
$var reg 1 r ex_mem_isJAL $end
$var reg 1 s ex_mem_isJALR $end
$var reg 1 t ex_mem_mem_read $end
$var reg 1 u ex_mem_mem_to_reg $end
$var reg 1 v ex_mem_mem_write $end
$var reg 32 w ex_mem_pcplus4 [31:0] $end
$var reg 32 x ex_mem_rd_addr [31:0] $end
$var reg 1 y ex_mem_reg_write $end
$var reg 32 z ex_mem_rs2_data [31:0] $end
$var reg 1 { ex_mem_zero_flag $end
$var reg 2 | id_ex_alu_in1_src [1:0] $end
$var reg 4 } id_ex_alu_op [3:0] $end
$var reg 1 ~ id_ex_alusrc $end
$var reg 3 !" id_ex_funct3 [2:0] $end
$var reg 32 "" id_ex_immediate [31:0] $end
$var reg 1 #" id_ex_isBtype_reg $end
$var reg 1 $" id_ex_isJAL $end
$var reg 1 %" id_ex_isJALR $end
$var reg 1 &" id_ex_mem_read $end
$var reg 1 '" id_ex_mem_to_reg $end
$var reg 1 (" id_ex_mem_write $end
$var reg 32 )" id_ex_pcplus4 [31:0] $end
$var reg 5 *" id_ex_rd_addr [4:0] $end
$var reg 1 +" id_ex_reg_write $end
$var reg 5 ," id_ex_rs1_addr [4:0] $end
$var reg 32 -" id_ex_rs1_data [31:0] $end
$var reg 5 ." id_ex_rs2_addr [4:0] $end
$var reg 32 /" id_ex_rs2_data [31:0] $end
$var reg 32 0" if_id_instruction [31:0] $end
$var reg 32 1" if_id_pcplus4 [31:0] $end
$var reg 32 2" immediate_id [31:0] $end
$var reg 1 3" mem_read_ctrl $end
$var reg 1 4" mem_to_reg_ctrl $end
$var reg 32 5" mem_wb_alu_result [31:0] $end
$var reg 1 6" mem_wb_isJAL $end
$var reg 1 7" mem_wb_isJALR $end
$var reg 32 8" mem_wb_mem_data [31:0] $end
$var reg 1 9" mem_wb_mem_to_reg $end
$var reg 32 :" mem_wb_pcplus4 [31:0] $end
$var reg 5 ;" mem_wb_rd_addr [4:0] $end
$var reg 1 <" mem_wb_reg_write $end
$var reg 1 =" mem_write_ctrl $end
$var reg 32 >" pc_reg [31:0] $end
$var reg 1 ?" reg_write_ctrl $end
$scope module alu_inst $end
$var wire 4 @" ALUOp [3:0] $end
$var wire 32 A" alu_in1 [31:0] $end
$var wire 32 B" alu_in2 [31:0] $end
$var wire 1 9 zero_flag $end
$var parameter 4 C" ALU_ADD $end
$var parameter 4 D" ALU_AND $end
$var parameter 4 E" ALU_OR $end
$var parameter 4 F" ALU_SLL $end
$var parameter 4 G" ALU_SLT $end
$var parameter 4 H" ALU_SLTU $end
$var parameter 4 I" ALU_SRA $end
$var parameter 4 J" ALU_SRL $end
$var parameter 4 K" ALU_SUB $end
$var parameter 4 L" ALU_XOR $end
$var reg 32 M" alu_out [31:0] $end
$upscope $end
$scope module reg_file_inst $end
$var wire 1 " clk $end
$var wire 5 N" rd [4:0] $end
$var wire 5 O" rs1 [4:0] $end
$var wire 5 P" rs2 [4:0] $end
$var wire 1 $ rst $end
$var wire 32 Q" write_data [31:0] $end
$var wire 1 7 write_en $end
$var wire 32 R" rs2_data [31:0] $end
$var wire 32 S" rs1_data [31:0] $end
$var integer 32 T" i [31:0] $end
$upscope $end
$upscope $end
$scope module mem0 $end
$var wire 32 U" addr [31:0] $end
$var wire 1 " clk $end
$var wire 32 V" data_in [31:0] $end
$var wire 1 ' rd_strobe $end
$var wire 1 $ rst $end
$var wire 4 W" wr_strobe [3:0] $end
$var wire 30 X" mem_loc [29:0] $end
$var parameter 32 Y" MEM_SIZE $end
$var reg 32 Z" data_out [31:0] $end
$upscope $end
$upscope $end
$upscope $end
$enddefinitions $end
$comment Show the parameter values. $end
$dumpall
b10000000000 Y"
b10 L"
b1 K"
b110 J"
b111 I"
b1001 H"
b1000 G"
b101 F"
b11 E"
b100 D"
b0 C"
$end
#0
$dumpvars
bx Z"
b0 X"
b0 W"
b0 V"
b0 U"
bx T"
b0 S"
b0 R"
b0 Q"
b0 P"
b0 O"
b0 N"
b0 M"
b0 B"
b0 A"
b0 @"
1?"
b0 >"
0="
0<"
b0 ;"
b0 :"
09"
b0 8"
x7"
x6"
b0 5"
04"
03"
b0 2"
b0 1"
b10011 0"
b0 /"
b0 ."
b0 -"
b0 ,"
0+"
b0 *"
b0 )"
0("
0'"
0&"
0%"
0$"
0#"
b0 ""
b0 !"
0~
b0 }
b0 |
0{
b0 z
0y
b0 x
b0 w
0v
0u
0t
0s
0r
0q
bx p
b0 o
b0 n
b10011 m
b10011 l
b10011 k
b10011 j
b0 i
b0 h
1g
b0 f
b0 e
b0 d
bx c
bx b
xa
bx1 `
b0 _
b0 ^
b0 ]
b0 \
b11111111111111111111111111111100 [
b0 Z
b0 Y
b0 X
b0 W
b0 V
b0 U
b0 T
b0 S
b0 R
xQ
xP
0O
1N
0M
0L
bx K
b0 J
xI
xH
bx G
b0 F
b0 E
b100 D
b100 C
b11111111111111111111111111111100 B
b100 A
b0 @
b0 ?
b0 >
b0 =
b0 <
b0 ;
b0 :
19
08
07
b0 6
05
04
b0 3
bx 2
z1
bz 0
bz /
b0 .
b0 -
x,
b0 +
b0 *
bx )
b0 (
1'
b0 &
bx %
1$
b1111101000 #
0"
b0 !
$end
#5
b10011 K
b10011 c
b10011 b
b10011 2
b10011 )
b10011 G
b10011 Z"
b100000 T"
1"
#10
0"
#15
b100000 T"
1"
#20
0"
#25
b100000 T"
1"
#30
0"
#35
b100000 T"
1"
#40
0"
#45
b100000 T"
1"
#50
0"
0$
#55
b11111111111111111111111110010011 K
b10010011 c
b1000 D
b10010011 b
b1 `
1,
b1 X"
1I
0H
1a
b100 +
b100 J
b100 U"
b101000000000000010010011 2
b101000000000000010010011 )
b101000000000000010010011 G
b101000000000000010010011 Z"
07"
06"
b10011 8"
b11111111111111111111111111111100 o
1Q
0P
b0 p
1{
1+"
1~
b100 1"
b1000 A
1N
b100 >"
b1 !
b1 *
b1 i
1"
#60
0"
#65
b10011 K
b10011 c
b1100 D
b100010011 b
b1010 2"
b10 X"
b1 @
b1010 <
b1010 P"
b1010 U
b100000000000 V
b1 S
b1010 T
b101000000000000000000000 R
b1000 +
b1000 J
b1000 U"
b1010000000000000100010011 2
b1010000000000000100010011 )
b1010000000000000100010011 G
b1010000000000000100010011 Z"
b10 !
b10 *
b10 i
b101000000000000010010011 8"
1y
b0 [
b0 B
b100 )"
b1000 1"
b101000000000000010010011 0"
b1100 A
1N
b1000 >"
1"
#70
0"
#75
b11111111111111111111111110110011 K
b10110011 c
09
b1010 3
b1010 \
b1010 M"
b10000 D
b1000000110110011 b
b1010 Y
b1010 B"
b10100 2"
b11 X"
b1010 ^
b1010 ]
b10 @
b10100 <
b10100 P"
b10100 U
b10 V
b10 S
b10100 T
b1010000000000000000000000 R
b1100 +
b1100 J
b1100 U"
b1000001000000110110011 2
b1000001000000110110011 )
b1000001000000110110011 G
b1000001000000110110011 Z"
b101000000000000010010011 k
b100 w
17
1<"
b1010000000000000100010011 8"
b0 o
b1 *"
b1010 ."
b1010 ""
b1110 [
b100 B
b1000 )"
b1100 1"
b1010000000000000100010011 0"
b10000 A
1N
b1100 >"
b11 !
b11 *
b11 i
1"
#80
0"
#85
b110000 K
b110000 c
b100 `
b10100 3
b10100 \
b10100 M"
b10100 D
0,
b11000110000 b
b10100 Y
b10100 B"
1?"
0g
b10 2"
b100 X"
b10100 ^
b10100 ]
b1100 C
b11 @
b1 >
b1 O"
b10 <
b10 P"
b10 U
b100000000010 V
b11 S
b1000000000000010 T
b1000001000000000000000 R
b10000 +
b10000 J
b10000 U"
b110001100000010001000100011 2
b110001100000010001000100011 )
b110001100000010001000100011 G
b110001100000010001000100011 Z"
b100 !
b100 *
b100 i
b101000000000000010010011 j
b1010000000000000100010011 k
b100 :"
b1000 w
b1000001000000110110011 8"
b1110 o
0{
b1 x
b1010 -
b1010 n
b10 *"
b10100 ."
b10100 ""
b11100 [
b1000 B
b1100 )"
b10000 1"
b1000001000000110110011 0"
b10100 A
1N
b10000 >"
1"
#90
0"
#95
b11110 3
b11110 \
b11110 M"
b1010 Z
b1010 A"
b110111 K
b110111 c
b1010 .
b1010 :
b1010 Q"
b1 `
b11000 D
b1010 ;
b1110001000110111 b
1="
1g
0?"
b1100100 2"
b101 X"
b1 d
b10 e
b0 ^
b0 ]
b1000 C
b100 @
b0 >
b0 O"
b11 <
b11 P"
b10 X
b11 W
b1100011 U
b1100100 V
b1100100 S
b10100001100010 T
b110001100000010000000000000 R
b10100 +
b10100 J
b10100 U"
b10101011110011011110001000110111 2
b10101011110011011110001000110111 )
b10101011110011011110001000110111 G
b10101011110011011110001000110111 Z"
b101000000000000010010011 l
b1010000000000000100010011 j
b1000001000000110110011 k
b1000 :"
b1100 w
b1 6
b1 N"
b1 ;"
b1010 5"
b110001100000010001000100011 8"
b11100 o
b10 x
b10100 -
b10100 n
0~
b11 *"
b10 ."
b1 ,"
b10 ""
b1110 [
b1100 B
b10000 )"
b10100 1"
b110001100000010001000100011 0"
b11000 A
1N
b10100 >"
b101 !
b101 *
b101 i
1"
#100
0"
#105
b0 K
b0 c
b10100 .
b10100 :
b10100 Q"
b100 `
b11110 Y
b11110 B"
b11110 3
b11110 \
b11110 M"
b11100 D
b10100 ;
b0 b
b0 Z
b0 A"
1?"
0="
1g
b10101011110011011110000000000000 2"
b110 X"
b1100100 ^
b1100100 ]
b10 e
b0 d
b1101 C
b11011 >
b11011 O"
b11100 <
b11100 P"
b110 X
b1010101 W
b11111111111111111111101010111100 U
b11111111111111111111001010100100 V
b11111111111111111111101010100100 S
b11111111111111011110001010111100 T
b10101011110011011110000000000000 R
b11000 +
b11000 J
b11000 U"
b10011 2
b10011 )
b10011 G
b10011 Z"
b110 !
b110 *
b110 i
b101000000000000010010011 m
b1010000000000000100010011 l
b1000001000000110110011 j
b110001100000010001000100011 k
b1100 :"
b10000 w
b10 6
b10 N"
b10 ;"
b10100 5"
b10101011110011011110001000110111 8"
b1110 o
b11 x
b11110 -
b11110 n
b10 !"
0+"
1("
1~
b100 *"
b11 ."
b0 ,"
b1100100 ""
b1110100 [
b10000 B
b10100 )"
b11000 1"
b10101011110011011110001000110111 0"
b11100 A
1N
b11000 >"
1"
#110
0"
#115
b10011111 c
b11110 .
b11110 :
b11110 Q"
b10101011110011011110000000000000 3
b10101011110011011110000000000000 \
b10101011110011011110000000000000 M"
b100000 D
b1111111110011111 b
b11110 ;
b11111111100111111111000001101111 K
b1111 `
0'
b10101011110011011110000000000000 Y
b10101011110011011110000000000000 B"
1?"
1g
b0 2"
b111 X"
0I
b1111 &
b1111 E
b1111 W"
14
b0 e
b10101011110011011110000000000000 ^
b10101011110011011110000000000000 ]
b100 C
b0 @
b0 >
b0 O"
b0 <
b0 P"
b0 X
b0 W
b0 U
b0 V
b0 S
b0 T
b0 R
b11110 +
b11110 J
b11110 U"
b11111111100111111111000001101111 2
b11111111100111111111000001101111 )
b11111111100111111111000001101111 G
b11111111100111111111000001101111 Z"
b1010000000000000100010011 m
b1000001000000110110011 l
b110001100000010001000100011 j
b10101011110011011110001000110111 k
b10000 :"
b10100 w
b11 6
b11 N"
b11 ;"
b11110 5"
b10011 8"
b1110100 o
0Q
b10 p
0y
1v
b100 x
b110 !"
1+"
0("
b11100 ."
b11011 ,"
b10101011110011011110000000000000 ""
b10101011110011011110000000010100 [
b10100 B
b11000 )"
b11100 1"
b10011 0"
b100000 A
0N
b11100 >"
b111 !
b111 *
b111 i
1"
#120
0"
#125
b1101111 c
19
b0 3
b0 \
b0 M"
b100100 D
1N
1'
b1111000001101111 b
b1000 X"
b0 Y
b0 B"
1?"
1g
b11111111111111111111111111111000 2"
0a
b0 &
b0 E
b0 W"
04
b100000 +
b100000 J
b100000 U"
b0 ^
b0 ]
1M
b11011 C
b11111 >
b11111 O"
b11001 <
b11001 P"
b111 X
b1111111 W
b11111111111111111111111111111001 U
b11111111111111111111011111100000 V
b11111111111111111111111111100000 S
b11111111111111111111111111111000 T
b11111111100111111111000000000000 R
b1000 !
b1000 *
b1000 i
b1000001000000110110011 m
b110001100000010001000100011 l
b10101011110011011110001000110111 j
b10011 k
b10100 :"
b11000 w
07
0<"
b100 6
b100 N"
b100 ;"
b11111111100111111111000001101111 8"
b10101011110011011110000000010100 o
b110 p
1y
0v
b10101011110011011110000000000000 -
b10101011110011011110000000000000 n
b0 !"
b0 *"
b0 ."
b0 ,"
b0 ""
b11000 [
b11000 B
b11100 )"
b100000 1"
b11111111100111111111000001101111 0"
b100100 A
b100000 >"
1"
#130
0"
#135
b10011 c
b10101011110011011110000000000000 .
b10101011110011011110000000000000 :
b10101011110011011110000000000000 Q"
09
b11111111111111111111111111111000 3
b11111111111111111111111111111000 \
b11111111111111111111111111111000 M"
b101000 D
b10011 b
b10101011110011011110000000000000 ;
b10011 K
b1 `
1,
b11111111111111111111111111111000 Y
b11111111111111111111111111111000 B"
b1001 X"
1I
1a
b11111111111111111111111111111000 ^
b11111111111111111111111111111000 ]
b100100 +
b100100 J
b100100 U"
b10011 2
b10011 )
b10011 G
b10011 Z"
b110001100000010001000100011 m
b10101011110011011110001000110111 l
b10011 j
b11111111100111111111000001101111 k
b11000 :"
b11100 w
17
1<"
b10101011110011011110000000000000 5"
b11000 o
1$"
1Q
b0 p
1{
b0 x
b0 -
b0 n
b111 !"
b11001 ."
b11111 ,"
b11111111111111111111111111111000 ""
b10100 [
b11100 B
b100000 )"
b100100 1"
b101000 A
1N
b100100 >"
b1001 !
b1001 *
b1001 i
1"
#140
0"
#145
b0 .
b0 :
b0 Q"
b10100 D
b0 ;
b1111 `
0,
1?"
1g
b0 2"
b1010 X"
0I
0a
0M
b100 C
b0 >
b0 O"
b0 <
b0 P"
b0 X
b0 W
b0 U
b0 V
b0 S
b0 T
b0 R
b101000 +
b101000 J
b101000 U"
b1010 !
b1010 *
b1010 i
b10101011110011011110001000110111 m
b10011 l
b11111111100111111111000001101111 j
b11100 :"
b100000 w
b0 6
b0 N"
b0 ;"
b0 5"
b10011 8"
b10100 o
1r
0Q
b111 p
0{
b11111111111111111111111111111000 -
b11111111111111111111111111111000 n
b11000 [
b100000 B
b100100 )"
b101000 1"
b10011 0"
b101100 A
1N
b101000 >"
1"
#150
0"
#155
b100000 .
b100000 :
b100000 Q"
b11000 D
19
b0 3
b0 \
b0 M"
b100000 ;
b0 Y
b0 B"
b101 X"
b0 ^
b0 ]
b10100 +
b10100 J
b10100 U"
b10011 m
b11111111100111111111000001101111 l
b10011 k
16"
b100000 :"
b100100 w
b11111111111111111111111111111000 5"
b11000 o
0$"
b0 !"
b0 ."
b0 ,"
b0 ""
b100100 [
b100100 B
b101000 )"
b101100 1"
b11000 A
1N
b10100 >"
b1011 !
b1011 *
b1011 i
1"
#160
0"
#165
b11100 D
b100100 .
b100100 :
b100100 Q"
b1 `
1,
b110 X"
b100100 ;
1I
1a
b11000 +
b11000 J
b11000 U"
b1100 !
b1100 *
b1100 i
b11111111100111111111000001101111 m
b10011 j
b100100 :"
b101000 w
b100100 o
0r
1Q
b0 p
1{
b0 -
b0 n
b101000 [
b101000 B
b101100 )"
b11000 1"
b11100 A
1N
b11000 >"
1"
#170
0"
#175
b1101111 K
b1101111 c
b100000 D
b1111000001101111 b
b0 .
b0 :
b0 Q"
b111 X"
b0 ;
b11100 +
b11100 J
b11100 U"
b11111111100111111111000001101111 2
b11111111100111111111000001101111 )
b11111111100111111111000001101111 G
b11111111100111111111000001101111 Z"
b10011 l
06"
b101000 :"
b101100 w
b0 5"
b101000 o
b10100 [
b10100 B
b11000 )"
b11100 1"
b100000 A
1N
b11100 >"
b1101 !
b1101 *
b1101 i
1"
#180
0"
#185
b0 K
b0 c
b100100 D
b0 b
1?"
1g
b11111111111111111111111111111000 2"
b1000 X"
1M
b11011 C
b11111 >
b11111 O"
b11001 <
b11001 P"
b111 X
b1111111 W
b11111111111111111111111111111001 U
b11111111111111111111011111100000 V
b11111111111111111111111111100000 S
b11111111111111111111111111111000 T
b11111111100111111111000000000000 R
b100000 +
b100000 J
b100000 U"
b0 2
b0 )
b0 G
b0 Z"
b1110 !
b1110 *
b1110 i
b10011 m
b101100 :"
b11000 w
b11111111100111111111000001101111 8"
b10100 o
b11000 [
b11000 B
b11100 )"
b100000 1"
b11111111100111111111000001101111 0"
b100100 A
1N
b100000 >"
1"
#190
0"
#195
b10011 K
b10011 c
09
b11111111111111111111111111111000 3
b11111111111111111111111111111000 \
b11111111111111111111111111111000 M"
b101000 D
b10011 b
b11111111111111111111111111111000 Y
b11111111111111111111111111111000 B"
14"
13"
1?"
1g
b0 2"
b1001 X"
b11111111111111111111111111111000 ^
b11111111111111111111111111111000 ]
0M
b0 C
b0 >
b0 O"
b0 <
b0 P"
b0 X
b0 W
b0 U
b0 V
b0 S
b0 T
b0 R
b100100 +
b100100 J
b100100 U"
b10011 2
b10011 )
b10011 G
b10011 Z"
b11111111100111111111000001101111 k
b11000 :"
b11100 w
b0 8"
b11000 o
1$"
b111 !"
b11001 ."
b11111 ,"
b11111111111111111111111111111000 ""
b10100 [
b11100 B
b100000 )"
b100100 1"
b0 0"
b101000 A
1N
b100100 >"
b1111 !
b1111 *
b1111 i
1"
#200
0"
#205
19
b0 3
b0 \
b0 M"
b10100 D
b1111 `
0,
b0 Y
b0 B"
04"
1?"
03"
1g
b1010 X"
0I
0a
b0 ^
b0 ]
b100 C
b101000 +
b101000 J
b101000 U"
b10000 !
b10000 *
b10000 i
b11111111100111111111000001101111 j
b0 k
b11100 :"
b100000 w
b10011 8"
b10100 o
1r
0$"
0Q
b111 p
0{
b11111111111111111111111111111000 -
b11111111111111111111111111111000 n
b0 !"
1'"
1&"
b0 ."
b0 ,"
b0 ""
b100000 [
b100000 B
b100100 )"
b101000 1"
b10011 0"
b101100 A
1N
b101000 >"
1"
#210
0"
#215
b100000 .
b100000 :
b100000 Q"
b11000 D
b100000 ;
b1 `
1,
b0 X"
1I
1a
14
b0 +
b0 J
b0 U"
b11111111100111111111000001101111 l
b0 j
b10011 k
16"
b100000 :"
b100100 w
b11111111111111111111111111111000 5"
b100000 o
0r
1Q
b0 p
1u
1t
1{
b0 -
b0 n
0'"
0&"
b100100 [
b100100 B
b101000 )"
b101100 1"
b11000 A
0N
b10100 >"
b10001 !
b10001 *
b10001 i
1"
#220
0"
#225
b11111111111111111111111110010011 K
b10010011 c
b110 X"
b11100 D
b10010011 b
1N
b11000 +
b11000 J
b11000 U"
b10011 ;
b10011 .
b10011 :
b10011 Q"
04
b101000000000000010010011 2
b101000000000000010010011 )
b101000000000000010010011 G
b101000000000000010010011 Z"
b10010 !
b10010 *
b10010 i
b11111111100111111111000001101111 m
b0 l
b10011 j
06"
b100100 :"
b101000 w
15
19"
b0 5"
b100100 o
0u
0t
b101000 [
b101000 B
b101100 )"
b11000 1"
b11100 A
b11000 >"
1"
#230
0"
#235
b1101111 K
b1101111 c
b0 .
b0 :
b0 Q"
b100000 D
b1111000001101111 b
b0 ;
b1010 2"
b111 X"
b1 @
b1010 <
b1010 P"
b1010 U
b100000000000 V
b1 S
b1010 T
b101000000000000000000000 R
b11100 +
b11100 J
b11100 U"
b11111111100111111111000001101111 2
b11111111100111111111000001101111 )
b11111111100111111111000001101111 G
b11111111100111111111000001101111 Z"
b0 m
b10011 l
b101000 :"
b101100 w
05
09"
b101000000000000010010011 8"
b101000 o
b10100 [
b10100 B
b11000 )"
b11100 1"
b101000000000000010010011 0"
b100000 A
1N
b11100 >"
b10011 !
b10011 *
b10011 i
1"
#240
0"
#245
b0 K
b0 c
09
b1010 3
b1010 \
b1010 M"
b100100 D
b0 b
b1010 Y
b1010 B"
1?"
1g
b11111111111111111111111111111000 2"
b1000 X"
b1010 ^
b1010 ]
1M
b11011 C
b0 @
b11111 >
b11111 O"
b11001 <
b11001 P"
b111 X
b1111111 W
b11111111111111111111111111111001 U
b11111111111111111111011111100000 V
b11111111111111111111111111100000 S
b11111111111111111111111111111000 T
b11111111100111111111000000000000 R
b100000 +
b100000 J
b100000 U"
b0 2
b0 )
b0 G
b0 Z"
b10100 !
b10100 *
b10100 i
b10011 m
b101000000000000010010011 k
b101100 :"
b11000 w
b11111111100111111111000001101111 8"
b10100 o
b1 *"
b1010 ."
b1010 ""
b100010 [
b11000 B
b11100 )"
b100000 1"
b11111111100111111111000001101111 0"
b100100 A
1N
b100000 >"
1"
#250
0"
#255
b100 `
b11111111111111111111111111111000 3
b11111111111111111111111111111000 \
b11111111111111111111111111111000 M"
b101000 D
0,
b11111111111111111111111111111000 Y
b11111111111111111111111111111000 B"
14"
13"
1?"
1g
b0 2"
b1001 X"
b11111111111111111111111111111000 ^
b11111111111111111111111111111000 ]
0M
b0 C
b0 >
b0 O"
b0 <
b0 P"
b0 X
b0 W
b0 U
b0 V
b0 S
b0 T
b0 R
b100100 +
b100100 J
b100100 U"
b10011 2
b10011 )
b10011 G
b10011 Z"
b101000000000000010010011 j
b11111111100111111111000001101111 k
b11000 :"
b11100 w
b0 8"
b100010 o
1$"
0{
b1 x
b1010 -
b1010 n
b111 !"
b0 *"
b11001 ."
b11111 ,"
b11111111111111111111111111111000 ""
b10100 [
b11100 B
b100000 )"
b100100 1"
b0 0"
b101000 A
1N
b100100 >"
b10101 !
b10101 *
b10101 i
1"
#260
0"
#265
b10011 c
b1010 .
b1010 :
b1010 Q"
19
b0 3
b0 \
b0 M"
b10100 D
b1010 ;
b10011 K
b1111 `
b10011 b
b0 Y
b0 B"
04"
1?"
03"
1g
b1010 X"
0I
0a
b0 ^
b0 ]
b100 C
b101000 +
b101000 J
b101000 U"
b10110 !
b10110 *
b10110 i
b101000000000000010010011 l
b11111111100111111111000001101111 j
b0 k
b11100 :"
b100000 w
b1 6
b1 N"
b1 ;"
b1010 5"
b10011 8"
b10100 o
1r
0$"
0Q
b111 p
b0 x
b11111111111111111111111111111000 -
b11111111111111111111111111111000 n
b0 !"
1'"
1&"
b0 ."
b0 ,"
b0 ""
b100000 [
b100000 B
b100100 )"
b101000 1"
b10011 0"
b101100 A
1N
b101000 >"
1"
#270
0"
#275
b100000 .
b100000 :
b100000 Q"
b11000 D
b100000 ;
b1 `
1,
b0 X"
1I
1a
14
b0 +
b0 J
b0 U"
b101000000000000010010011 m
b11111111100111111111000001101111 l
b0 j
b10011 k
16"
b100000 :"
b100100 w
b0 6
b0 N"
b0 ;"
b11111111111111111111111111111000 5"
b100000 o
0r
1Q
b0 p
1u
1t
1{
b0 -
b0 n
0'"
0&"
b100100 [
b100100 B
b101000 )"
b101100 1"
b11000 A
0N
b10100 >"
b10111 !
b10111 *
b10111 i
1"
#280
0"
#285
b11111111111111111111111110010011 K
b10010011 c
b110 X"
b11100 D
b10010011 b
1N
b11000 +
b11000 J
b11000 U"
b10011 ;
b10011 .
b10011 :
b10011 Q"
04
b101000000000000010010011 2
b101000000000000010010011 )
b101000000000000010010011 G
b101000000000000010010011 Z"
b11000 !
b11000 *
b11000 i
b11111111100111111111000001101111 m
b0 l
b10011 j
06"
b100100 :"
b101000 w
15
19"
b0 5"
b100100 o
0u
0t
b101000 [
b101000 B
b101100 )"
b11000 1"
b11100 A
b11000 >"
1"
#290
0"
#295
b1101111 K
b1101111 c
b0 .
b0 :
b0 Q"
b100000 D
b1111000001101111 b
b0 ;
b1010 2"
b111 X"
b1 @
b1010 <
b1010 P"
b1010 U
b100000000000 V
b1 S
b1010 T
b101000000000000000000000 R
b11100 +
b11100 J
b11100 U"
b11111111100111111111000001101111 2
b11111111100111111111000001101111 )
b11111111100111111111000001101111 G
b11111111100111111111000001101111 Z"
b0 m
b10011 l
b101000 :"
b101100 w
05
09"
b101000000000000010010011 8"
b101000 o
b10100 [
b10100 B
b11000 )"
b11100 1"
b101000000000000010010011 0"
b100000 A
1N
b11100 >"
b11001 !
b11001 *
b11001 i
1"
#300
0"
#305
b0 K
b0 c
09
b1010 3
b1010 \
b1010 M"
b100100 D
b0 b
b1010 Y
b1010 B"
1?"
1g
b11111111111111111111111111111000 2"
b1000 X"
b1010 ^
b1010 ]
1M
b11011 C
b0 @
b11111 >
b11111 O"
b11001 <
b11001 P"
b111 X
b1111111 W
b11111111111111111111111111111001 U
b11111111111111111111011111100000 V
b11111111111111111111111111100000 S
b11111111111111111111111111111000 T
b11111111100111111111000000000000 R
b100000 +
b100000 J
b100000 U"
b0 2
b0 )
b0 G
b0 Z"
b11010 !
b11010 *
b11010 i
b10011 m
b101000000000000010010011 k
b101100 :"
b11000 w
b11111111100111111111000001101111 8"
b10100 o
b1 *"
b1010 ."
b1010 ""
b100010 [
b11000 B
b11100 )"
b100000 1"
b11111111100111111111000001101111 0"
b100100 A
1N
b100000 >"
1"
#310
0"
#315
b100 `
b11111111111111111111111111111000 3
b11111111111111111111111111111000 \
b11111111111111111111111111111000 M"
b101000 D
0,
b11111111111111111111111111111000 Y
b11111111111111111111111111111000 B"
14"
13"
1?"
1g
b0 2"
b1001 X"
b11111111111111111111111111111000 ^
b11111111111111111111111111111000 ]
0M
b0 C
b0 >
b0 O"
b0 <
b0 P"
b0 X
b0 W
b0 U
b0 V
b0 S
b0 T
b0 R
b100100 +
b100100 J
b100100 U"
b10011 2
b10011 )
b10011 G
b10011 Z"
b101000000000000010010011 j
b11111111100111111111000001101111 k
b11000 :"
b11100 w
b0 8"
b100010 o
1$"
0{
b1 x
b1010 -
b1010 n
b111 !"
b0 *"
b11001 ."
b11111 ,"
b11111111111111111111111111111000 ""
b10100 [
b11100 B
b100000 )"
b100100 1"
b0 0"
b101000 A
1N
b100100 >"
b11011 !
b11011 *
b11011 i
1"
#320
0"
