src/test.vcd
$date
	Sat Nov 15 18:30:07 2025
$end
$version
	Icarus Verilog
$end
$timescale
	1s
$end
$scope module top_test $end
$var wire 32 ! cycle [31:0] $end
$var reg 1 " clk $end
$var reg 11 # loc [10:0] $end
$var reg 1 $ rst $end
$var integer 32 % i [31:0] $end
$scope module dut $end
$var wire 1 " clk $end
$var wire 1 $ rst $end
$var wire 4 & wr_strobe [3:0] $end
$var wire 1 ' rstrb $end
$var wire 32 ( mem_wdata [31:0] $end
$var wire 32 ) mem_rdata [31:0] $end
$var wire 32 * cycle [31:0] $end
$var wire 32 + addr [31:0] $end
$scope module cpu0 $end
$var wire 1 , branch_taken $end
$var wire 1 " clk $end
$var wire 32 - forward_data_mem [31:0] $end
$var wire 32 . forward_data_wb [31:0] $end
$var wire 32 / imem_addr [31:0] $end
$var wire 32 0 imem_rdata [31:0] $end
$var wire 1 1 imem_rstrb $end
$var wire 32 2 instruction_from_mem [31:0] $end
$var wire 32 3 jalr_target_calc [31:0] $end
$var wire 1 4 mem_access_in_mem_stage $end
$var wire 32 5 mem_addr [31:0] $end
$var wire 1 ' mem_rstrb $end
$var wire 1 6 mem_to_reg_wb $end
$var wire 32 7 mem_wdata [31:0] $end
$var wire 5 8 rd_wb [4:0] $end
$var wire 1 9 reg_write_wb $end
$var wire 1 $ rst $end
$var wire 1 : take_branch_condition $end
$var wire 1 ; zero_flag $end
$var wire 32 < write_data_to_reg [31:0] $end
$var wire 32 = wb_data [31:0] $end
$var wire 32 > store_rs2_forwarded [31:0] $end
$var wire 5 ? rs2_id [4:0] $end
$var wire 32 @ rs2_data [31:0] $end
$var wire 5 A rs1_id [4:0] $end
$var wire 32 B rs1_data [31:0] $end
$var wire 5 C rd_id [4:0] $end
$var wire 32 D pcplus4_if [31:0] $end
$var wire 32 E pc_ex [31:0] $end
$var wire 5 F opcode_id [4:0] $end
$var wire 32 G next_pc [31:0] $end
$var wire 4 H mem_wstrb [3:0] $end
$var wire 32 I mem_rdata [31:0] $end
$var wire 1 J mem_halfwordAccess_mem $end
$var wire 1 K mem_byteAccess_mem $end
$var wire 32 L load_data_formatted [31:0] $end
$var wire 1 M is_jalr_id $end
$var wire 1 N is_jal_id $end
$var wire 1 O is_instruction_fetch $end
$var wire 1 P is_btype_id $end
$var wire 1 Q is_bne $end
$var wire 1 R is_bltu $end
$var wire 1 S is_blt $end
$var wire 1 T is_bgeu $end
$var wire 1 U is_bge $end
$var wire 1 V is_beq $end
$var wire 32 W imm_u [31:0] $end
$var wire 32 X imm_s [31:0] $end
$var wire 32 Y imm_j [31:0] $end
$var wire 32 Z imm_i [31:0] $end
$var wire 32 [ imm_b [31:0] $end
$var wire 7 \ funct7_id [6:0] $end
$var wire 3 ] funct3_id [2:0] $end
$var wire 32 ^ forwarded_alu_in2 [31:0] $end
$var wire 32 _ forwarded_alu_in1 [31:0] $end
$var wire 32 ` branch_target_ex [31:0] $end
$var wire 32 a alu_result [31:0] $end
$var wire 1 b alu_ltu $end
$var wire 1 c alu_lt $end
$var wire 32 d alu_input_b [31:0] $end
$var wire 32 e alu_in2_source_select [31:0] $end
$var wire 32 f alu_in1_source_select [31:0] $end
$var wire 1 g LOAD_sign_mem $end
$var wire 16 h LOAD_halfword_mem [15:0] $end
$var wire 8 i LOAD_byte_mem [7:0] $end
$var reg 3 j ForwardA [2:0] $end
$var reg 3 k ForwardB [2:0] $end
$var reg 2 l ForwardStore [1:0] $end
$var reg 4 m alu_op_ctrl [3:0] $end
$var reg 1 n alusrc_ctrl $end
$var reg 2 o ctrl_alu_in1_src [1:0] $end
$var reg 32 p cycle [31:0] $end
$var reg 32 q debug_ex_instruction [31:0] $end
$var reg 32 r debug_id_instruction [31:0] $end
$var reg 32 s debug_mem_instruction [31:0] $end
$var reg 32 t debug_wb_instruction [31:0] $end
$var reg 1 u ex_mem_alu_lt $end
$var reg 1 v ex_mem_alu_ltu $end
$var reg 32 w ex_mem_alu_result [31:0] $end
$var reg 32 x ex_mem_branch_target [31:0] $end
$var reg 3 y ex_mem_funct3 [2:0] $end
$var reg 1 z ex_mem_isBtype $end
$var reg 1 { ex_mem_isJAL $end
$var reg 1 | ex_mem_isJALR $end
$var reg 1 } ex_mem_mem_read $end
$var reg 1 ~ ex_mem_mem_to_reg $end
$var reg 1 !" ex_mem_mem_write $end
$var reg 32 "" ex_mem_pcplus4 [31:0] $end
$var reg 32 #" ex_mem_rd_addr [31:0] $end
$var reg 1 $" ex_mem_reg_write $end
$var reg 32 %" ex_mem_rs2_data [31:0] $end
$var reg 1 &" ex_mem_zero_flag $end
$var reg 2 '" id_ex_alu_in1_src [1:0] $end
$var reg 4 (" id_ex_alu_op [3:0] $end
$var reg 1 )" id_ex_alusrc $end
$var reg 3 *" id_ex_funct3 [2:0] $end
$var reg 32 +" id_ex_immediate [31:0] $end
$var reg 1 ," id_ex_isBtype_reg $end
$var reg 1 -" id_ex_isJAL $end
$var reg 1 ." id_ex_isJALR $end
$var reg 1 /" id_ex_mem_read $end
$var reg 1 0" id_ex_mem_to_reg $end
$var reg 1 1" id_ex_mem_write $end
$var reg 32 2" id_ex_pcplus4 [31:0] $end
$var reg 5 3" id_ex_rd_addr [4:0] $end
$var reg 1 4" id_ex_reg_write $end
$var reg 5 5" id_ex_rs1_addr [4:0] $end
$var reg 32 6" id_ex_rs1_data [31:0] $end
$var reg 5 7" id_ex_rs2_addr [4:0] $end
$var reg 32 8" id_ex_rs2_data [31:0] $end
$var reg 32 9" if_id_instruction [31:0] $end
$var reg 32 :" if_id_pcplus4 [31:0] $end
$var reg 32 ;" immediate_id [31:0] $end
$var reg 1 <" mem_read_ctrl $end
$var reg 1 =" mem_to_reg_ctrl $end
$var reg 32 >" mem_wb_alu_result [31:0] $end
$var reg 1 ?" mem_wb_isJAL $end
$var reg 1 @" mem_wb_isJALR $end
$var reg 32 A" mem_wb_mem_data [31:0] $end
$var reg 1 B" mem_wb_mem_to_reg $end
$var reg 32 C" mem_wb_pcplus4 [31:0] $end
$var reg 5 D" mem_wb_rd_addr [4:0] $end
$var reg 1 9 mem_wb_reg_write $end
$var reg 1 E" mem_write_ctrl $end
$var reg 32 F" pc_reg [31:0] $end
$var reg 1 G" reg_write_ctrl $end
$scope module alu_inst $end
$var wire 4 H" ALUOp [3:0] $end
$var wire 32 I" alu_in1 [31:0] $end
$var wire 32 J" alu_in2 [31:0] $end
$var wire 1 ; zero_flag $end
$var wire 1 b alu_ltu $end
$var wire 1 c alu_lt $end
$var parameter 4 K" ALU_ADD $end
$var parameter 4 L" ALU_AND $end
$var parameter 4 M" ALU_OR $end
$var parameter 4 N" ALU_SLL $end
$var parameter 4 O" ALU_SLT $end
$var parameter 4 P" ALU_SLTU $end
$var parameter 4 Q" ALU_SRA $end
$var parameter 4 R" ALU_SRL $end
$var parameter 4 S" ALU_SUB $end
$var parameter 4 T" ALU_XOR $end
$var reg 32 U" alu_out [31:0] $end
$upscope $end
$scope module reg_file_inst $end
$var wire 1 " clk $end
$var wire 5 V" rd [4:0] $end
$var wire 5 W" rs1 [4:0] $end
$var wire 5 X" rs2 [4:0] $end
$var wire 1 $ rst $end
$var wire 32 Y" write_data [31:0] $end
$var wire 1 9 write_en $end
$var wire 32 Z" rs2_data [31:0] $end
$var wire 32 [" rs1_data [31:0] $end
$var integer 32 \" i [31:0] $end
$upscope $end
$upscope $end
$scope module mem0 $end
$var wire 32 ]" addr [31:0] $end
$var wire 1 " clk $end
$var wire 32 ^" data_in [31:0] $end
$var wire 1 ' rd_strobe $end
$var wire 1 $ rst $end
$var wire 4 _" wr_strobe [3:0] $end
$var wire 30 `" mem_loc [29:0] $end
$var parameter 32 a" MEM_SIZE $end
$var reg 32 b" data_out [31:0] $end
$upscope $end
$upscope $end
$upscope $end
$enddefinitions $end
$comment Show the parameter values. $end
$dumpall
b10000000000 a"
b10 T"
b1 S"
b110 R"
b111 Q"
b1001 P"
b1000 O"
b101 N"
b11 M"
b100 L"
b0 K"
$end
#0
$dumpvars
bx b"
b0 `"
b0 _"
b0 ^"
b0 ]"
bx \"
b0 ["
b0 Z"
b0 Y"
b0 X"
b0 W"
b0 V"
b0 U"
b0 J"
b0 I"
b0 H"
1G"
b0 F"
0E"
b0 D"
b0 C"
0B"
b0 A"
x@"
x?"
b0 >"
0="
0<"
b0 ;"
b0 :"
b10011 9"
b0 8"
b0 7"
b0 6"
b0 5"
04"
b0 3"
b0 2"
01"
00"
0/"
0."
0-"
0,"
b0 +"
b0 *"
0)"
b0 ("
b0 '"
0&"
b0 %"
0$"
b0 #"
b0 ""
0!"
0~
0}
0|
0{
0z
bx y
b0 x
b0 w
0v
0u
b10011 t
b10011 s
b10011 r
b10011 q
b0 p
b0 o
1n
b0 m
b0 l
b0 k
b0 j
bx i
bx h
xg
b0 f
b0 e
b0 d
0c
0b
b0 a
b11111111111111111111111111111100 `
b0 _
b0 ^
b0 ]
b0 \
b0 [
b0 Z
b0 Y
b0 X
b0 W
xV
xU
xT
xS
xR
xQ
0P
1O
0N
0M
bx L
xK
xJ
bx I
b0 H
b100 G
b100 F
b11111111111111111111111111111100 E
b100 D
b0 C
b0 B
b0 A
b0 @
b0 ?
b0 >
b0 =
b0 <
1;
0:
09
b0 8
b0 7
06
b0 5
04
b0 3
bz 2
11
bz 0
b0 /
b0 .
b0 -
x,
b0 +
b0 *
bx )
b0 (
0'
b0 &
bx %
1$
b1111101000 #
0"
b0 !
$end
#5
b10011 L
b10011 i
b10011 h
b10011 )
b10011 I
b10011 b"
b100000 \"
1"
#10
0"
#15
b100000 \"
1"
#20
0"
#25
b100000 \"
1"
#30
0"
#35
b100000 \"
1"
#40
0"
#45
b100000 \"
1"
#50
0"
0$
#55
1,
b1000 G
bx B
bx ["
bx @
bx Z"
0G"
0n
bz ;"
1K
0J
1g
xM
xN
xP
bz F
bz C
bz A
bz W"
bz ?
bz X"
bz ]
bz \
bz Z
bz0 [
bz X
bz0 Y
bz000000000000 W
0@"
0?"
b10011 A"
b11111111111111111111111111111100 x
1V
0Q
0S
0U
0R
0T
b0 y
1&"
14"
1)"
b100 :"
bz 9"
b1000 D
0O
b100 /
b100 F"
b1 !
b1 *
b1 p
1"
#60
0"
#65
bx _
bx I"
x;
bx 3
bx a
bx U"
bx f
b1100 G
xc
xb
bx ^
bx J"
bx >
bx e
bx d
b10 !
b10 *
b10 p
bz r
x."
x-"
x,"
1$"
bz *"
04"
0)"
bz 3"
bz 7"
bz 5"
bz +"
bx 8"
bx 6"
bx `
b0 E
b100 2"
b1000 :"
b1100 D
b1000 /
b1000 F"
1"
#70
0"
#75
b0x00xx L
x,
b0x00xx h
b0x00xx i
bx G
x:
xK
xJ
xg
bx `"
bz q
b100 ""
19
bx x
x{
x|
xz
xV
xQ
xS
xU
xR
xT
bz y
0$"
xv
xu
x&"
b0zzzzz #"
bx (
bx 7
bx ^"
bx %"
xO
bx +
bx 5
bx ]"
bx -
bx w
b100 E
b1000 2"
b1100 :"
b10000 D
b1100 /
b1100 F"
b11 !
b11 *
b11 p
1"
#80
0"
#85
bx .
bx <
bx Y"
bx =
b100 !
b100 *
b100 p
bz s
x@"
x?"
b100 C"
b1000 ""
09
bz 8
bz D"
bz V"
bx >"
b1000 E
b1100 2"
b10000 :"
bx D
bx /
bx F"
1"
#90
0"
#95
bz t
b1000 C"
b1100 ""
b1100 E
b10000 2"
bx :"
b101 !
b101 *
b101 p
1"
#100
0"
#105
b110 !
b110 *
b110 p
b1100 C"
b10000 ""
bx E
bx 2"
1"
#110
0"
#115
b10000 C"
bx ""
b111 !
b111 *
b111 p
1"
#120
0"
#125
b1000 !
b1000 *
b1000 p
bx C"
1"
#130
0"
#135
b1001 !
b1001 *
b1001 p
1"
#140
0"
#145
b1010 !
b1010 *
b1010 p
1"
#150
0"
#155
b1011 !
b1011 *
b1011 p
1"
#160
0"
#165
b1100 !
b1100 *
b1100 p
1"
#170
0"
#175
b1101 !
b1101 *
b1101 p
1"
#180
0"
#185
b1110 !
b1110 *
b1110 p
1"
#190
0"
#195
b1111 !
b1111 *
b1111 p
1"
#200
0"
#205
b10000 !
b10000 *
b10000 p
1"
#210
0"
#215
b10001 !
b10001 *
b10001 p
1"
#220
0"
#225
b10010 !
b10010 *
b10010 p
1"
#230
0"
#235
b10011 !
b10011 *
b10011 p
1"
#240
0"
#245
b10100 !
b10100 *
b10100 p
1"
#250
0"
#255
b10101 !
b10101 *
b10101 p
1"
#260
0"
#265
b10110 !
b10110 *
b10110 p
1"
#270
0"
#275
b10111 !
b10111 *
b10111 p
1"
#280
0"
#285
b11000 !
b11000 *
b11000 p
1"
#290
0"
#295
b11001 !
b11001 *
b11001 p
1"
#300
0"
#305
b11010 !
b11010 *
b11010 p
1"
#310
0"
#315
b11011 !
b11011 *
b11011 p
1"
#320
0"
#325
b11100 !
b11100 *
b11100 p
1"
#330
0"
#335
b11101 !
b11101 *
b11101 p
1"
#340
0"
#345
b11110 !
b11110 *
b11110 p
1"
#350
0"
#355
b11111 !
b11111 *
b11111 p
1"
#360
0"
#365
b100000 !
b100000 *
b100000 p
1"
#370
0"
#375
b100001 !
b100001 *
b100001 p
1"
#380
0"
#385
b100010 !
b100010 *
b100010 p
1"
#390
0"
#395
b100011 !
b100011 *
b100011 p
1"
#400
0"
#405
b100100 !
b100100 *
b100100 p
1"
#410
0"
#415
b100101 !
b100101 *
b100101 p
1"
#420
0"
#425
b100110 !
b100110 *
b100110 p
1"
#430
0"
#435
b100111 !
b100111 *
b100111 p
1"
#440
0"
#445
b101000 !
b101000 *
b101000 p
1"
#450
0"
#455
b101001 !
b101001 *
b101001 p
1"
#460
0"
#465
b101010 !
b101010 *
b101010 p
1"
#470
0"
#475
b101011 !
b101011 *
b101011 p
1"
#480
0"
#485
b101100 !
b101100 *
b101100 p
1"
#490
0"
#495
b101101 !
b101101 *
b101101 p
1"
#500
0"
#505
b101110 !
b101110 *
b101110 p
1"
#510
0"
#515
b101111 !
b101111 *
b101111 p
1"
#520
0"
#525
b110000 !
b110000 *
b110000 p
1"
#530
0"
#535
b110001 !
b110001 *
b110001 p
1"
#540
0"
#545
b110010 !
b110010 *
b110010 p
1"
#550
0"
#555
b110011 !
b110011 *
b110011 p
1"
#560
0"
#565
b110100 !
b110100 *
b110100 p
1"
#570
0"
#575
b110101 !
b110101 *
b110101 p
1"
#580
0"
#585
b110110 !
b110110 *
b110110 p
1"
#590
0"
#595
b110111 !
b110111 *
b110111 p
1"
#600
0"
#605
b111000 !
b111000 *
b111000 p
1"
#610
0"
#615
b111001 !
b111001 *
b111001 p
1"
#620
0"
#625
b111010 !
b111010 *
b111010 p
1"
#630
0"
#635
b111011 !
b111011 *
b111011 p
1"
#640
0"
#645
b111100 !
b111100 *
b111100 p
1"
#650
0"
#655
b111101 !
b111101 *
b111101 p
1"
#660
0"
#665
b111110 !
b111110 *
b111110 p
1"
#670
0"
#675
b111111 !
b111111 *
b111111 p
1"
#680
0"
#685
b1000000 !
b1000000 *
b1000000 p
1"
#690
0"
#695
b1000001 !
b1000001 *
b1000001 p
1"
#700
0"
#705
b1000010 !
b1000010 *
b1000010 p
1"
#710
0"
#715
b1000011 !
b1000011 *
b1000011 p
1"
#720
0"
#725
b1000100 !
b1000100 *
b1000100 p
1"
#730
0"
#735
b1000101 !
b1000101 *
b1000101 p
1"
#740
0"
#745
b1000110 !
b1000110 *
b1000110 p
1"
#750
0"
#755
b1000111 !
b1000111 *
b1000111 p
1"
#760
0"
#765
b1001000 !
b1001000 *
b1001000 p
1"
#770
0"
#775
b1001001 !
b1001001 *
b1001001 p
1"
#780
0"
#785
b1001010 !
b1001010 *
b1001010 p
1"
#790
0"
#795
b1001011 !
b1001011 *
b1001011 p
1"
#800
0"
#805
b1001100 !
b1001100 *
b1001100 p
1"
#810
0"
#815
b1001101 !
b1001101 *
b1001101 p
1"
#820
0"
#825
b1001110 !
b1001110 *
b1001110 p
1"
#830
0"
#835
b1001111 !
b1001111 *
b1001111 p
1"
#840
0"
#845
b1010000 !
b1010000 *
b1010000 p
1"
#850
0"
#855
b1010001 !
b1010001 *
b1010001 p
1"
#860
0"
#865
b1010010 !
b1010010 *
b1010010 p
1"
#870
0"
#875
b1010011 !
b1010011 *
b1010011 p
1"
#880
0"
#885
b1010100 !
b1010100 *
b1010100 p
1"
#890
0"
#895
b1010101 !
b1010101 *
b1010101 p
1"
#900
0"
#905
b1010110 !
b1010110 *
b1010110 p
1"
#910
0"
#915
b1010111 !
b1010111 *
b1010111 p
1"
#920
0"
#925
b1011000 !
b1011000 *
b1011000 p
1"
#930
0"
#935
b1011001 !
b1011001 *
b1011001 p
1"
#940
0"
#945
b1011010 !
b1011010 *
b1011010 p
1"
#950
0"
#955
b1011011 !
b1011011 *
b1011011 p
1"
#960
0"
#965
b1011100 !
b1011100 *
b1011100 p
1"
#970
0"
#975
b1011101 !
b1011101 *
b1011101 p
1"
#980
0"
#985
b1011110 !
b1011110 *
b1011110 p
1"
#990
0"
#995
b1011111 !
b1011111 *
b1011111 p
1"
#1000
0"
#1005
b1100000 !
b1100000 *
b1100000 p
1"
#1010
0"
#1015
b1100001 !
b1100001 *
b1100001 p
1"
#1020
0"
#1025
b1100010 !
b1100010 *
b1100010 p
1"
#1030
0"
#1035
b1100011 !
b1100011 *
b1100011 p
1"
#1040
0"
#1045
b1100100 !
b1100100 *
b1100100 p
1"
#1050
0"
#1055
b1100101 !
b1100101 *
b1100101 p
1"
#1060
0"
#1065
b1100110 !
b1100110 *
b1100110 p
1"
#1070
0"
#1075
b1100111 !
b1100111 *
b1100111 p
1"
#1080
0"
#1085
b1101000 !
b1101000 *
b1101000 p
1"
#1090
0"
#1095
b1101001 !
b1101001 *
b1101001 p
1"
#1100
0"
#1105
b1101010 !
b1101010 *
b1101010 p
1"
#1110
0"
#1115
b1101011 !
b1101011 *
b1101011 p
1"
#1120
0"
#1125
b1101100 !
b1101100 *
b1101100 p
1"
#1130
0"
#1135
b1101101 !
b1101101 *
b1101101 p
1"
#1140
0"
#1145
b1101110 !
b1101110 *
b1101110 p
1"
#1150
0"
#1155
b1101111 !
b1101111 *
b1101111 p
1"
#1160
0"
#1165
b1110000 !
b1110000 *
b1110000 p
1"
#1170
0"
#1175
b1110001 !
b1110001 *
b1110001 p
1"
#1180
0"
#1185
b1110010 !
b1110010 *
b1110010 p
1"
#1190
0"
#1195
b1110011 !
b1110011 *
b1110011 p
1"
#1200
0"
#1205
b1110100 !
b1110100 *
b1110100 p
1"
#1210
0"
#1215
b1110101 !
b1110101 *
b1110101 p
1"
#1220
0"
#1225
b1110110 !
b1110110 *
b1110110 p
1"
#1230
0"
#1235
b1110111 !
b1110111 *
b1110111 p
1"
#1240
0"
#1245
b1111000 !
b1111000 *
b1111000 p
1"
#1250
0"
#1255
b1111001 !
b1111001 *
b1111001 p
1"
#1260
0"
#1265
b1111010 !
b1111010 *
b1111010 p
1"
#1270
0"
#1275
b1111011 !
b1111011 *
b1111011 p
1"
#1280
0"
#1285
b1111100 !
b1111100 *
b1111100 p
1"
#1290
0"
#1295
b1111101 !
b1111101 *
b1111101 p
1"
#1300
0"
#1305
b1111110 !
b1111110 *
b1111110 p
1"
#1310
0"
#1315
b1111111 !
b1111111 *
b1111111 p
1"
#1320
0"
#1325
b10000000 !
b10000000 *
b10000000 p
1"
#1330
0"
#1335
b10000001 !
b10000001 *
b10000001 p
1"
#1340
0"
#1345
b10000010 !
b10000010 *
b10000010 p
1"
#1350
0"
#1355
b10000011 !
b10000011 *
b10000011 p
1"
#1360
0"
#1365
b10000100 !
b10000100 *
b10000100 p
1"
#1370
0"
#1375
b10000101 !
b10000101 *
b10000101 p
1"
#1380
0"
#1385
b10000110 !
b10000110 *
b10000110 p
1"
#1390
0"
#1395
b10000111 !
b10000111 *
b10000111 p
1"
#1400
0"
#1405
b10001000 !
b10001000 *
b10001000 p
1"
#1410
0"
#1415
b10001001 !
b10001001 *
b10001001 p
1"
#1420
0"
#1425
b10001010 !
b10001010 *
b10001010 p
1"
#1430
0"
#1435
b10001011 !
b10001011 *
b10001011 p
1"
#1440
0"
#1445
b10001100 !
b10001100 *
b10001100 p
1"
#1450
0"
#1455
b10001101 !
b10001101 *
b10001101 p
1"
#1460
0"
#1465
b10001110 !
b10001110 *
b10001110 p
1"
#1470
0"
#1475
b10001111 !
b10001111 *
b10001111 p
1"
#1480
0"
#1485
b10010000 !
b10010000 *
b10010000 p
1"
#1490
0"
#1495
b10010001 !
b10010001 *
b10010001 p
1"
#1500
0"
#1505
b10010010 !
b10010010 *
b10010010 p
1"
#1510
0"
#1515
b10010011 !
b10010011 *
b10010011 p
1"
#1520
0"
#1525
b10010100 !
b10010100 *
b10010100 p
1"
#1530
0"
#1535
b10010101 !
b10010101 *
b10010101 p
1"
#1540
0"
#1545
b10010110 !
b10010110 *
b10010110 p
1"
#1550
0"
#1555
b10010111 !
b10010111 *
b10010111 p
1"
#1560
0"
#1565
b10011000 !
b10011000 *
b10011000 p
1"
#1570
0"
#1575
b10011001 !
b10011001 *
b10011001 p
1"
#1580
0"
#1585
b10011010 !
b10011010 *
b10011010 p
1"
#1590
0"
#1595
b10011011 !
b10011011 *
b10011011 p
1"
#1600
0"
#1605
b10011100 !
b10011100 *
b10011100 p
1"
#1610
0"
#1615
b10011101 !
b10011101 *
b10011101 p
1"
#1620
0"
#1625
b10011110 !
b10011110 *
b10011110 p
1"
#1630
0"
#1635
b10011111 !
b10011111 *
b10011111 p
1"
#1640
0"
#1645
b10100000 !
b10100000 *
b10100000 p
1"
#1650
0"
#1655
b10100001 !
b10100001 *
b10100001 p
1"
#1660
0"
#1665
b10100010 !
b10100010 *
b10100010 p
1"
#1670
0"
#1675
b10100011 !
b10100011 *
b10100011 p
1"
#1680
0"
#1685
b10100100 !
b10100100 *
b10100100 p
1"
#1690
0"
#1695
b10100101 !
b10100101 *
b10100101 p
1"
#1700
0"
#1705
b10100110 !
b10100110 *
b10100110 p
1"
#1710
0"
#1715
b10100111 !
b10100111 *
b10100111 p
1"
#1720
0"
#1725
b10101000 !
b10101000 *
b10101000 p
1"
#1730
0"
#1735
b10101001 !
b10101001 *
b10101001 p
1"
#1740
0"
#1745
b10101010 !
b10101010 *
b10101010 p
1"
#1750
0"
#1755
b10101011 !
b10101011 *
b10101011 p
1"
#1760
0"
#1765
b10101100 !
b10101100 *
b10101100 p
1"
#1770
0"
#1775
b10101101 !
b10101101 *
b10101101 p
1"
#1780
0"
#1785
b10101110 !
b10101110 *
b10101110 p
1"
#1790
0"
#1795
b10101111 !
b10101111 *
b10101111 p
1"
#1800
0"
#1805
b10110000 !
b10110000 *
b10110000 p
1"
#1810
0"
#1815
b10110001 !
b10110001 *
b10110001 p
1"
#1820
0"
#1825
b10110010 !
b10110010 *
b10110010 p
1"
#1830
0"
#1835
b10110011 !
b10110011 *
b10110011 p
1"
#1840
0"
#1845
b10110100 !
b10110100 *
b10110100 p
1"
#1850
0"
#1855
b10110101 !
b10110101 *
b10110101 p
1"
#1860
0"
#1865
b10110110 !
b10110110 *
b10110110 p
1"
#1870
0"
#1875
b10110111 !
b10110111 *
b10110111 p
1"
#1880
0"
#1885
b10111000 !
b10111000 *
b10111000 p
1"
#1890
0"
#1895
b10111001 !
b10111001 *
b10111001 p
1"
#1900
0"
#1905
b10111010 !
b10111010 *
b10111010 p
1"
#1910
0"
#1915
b10111011 !
b10111011 *
b10111011 p
1"
#1920
0"
#1925
b10111100 !
b10111100 *
b10111100 p
1"
#1930
0"
#1935
b10111101 !
b10111101 *
b10111101 p
1"
#1940
0"
#1945
b10111110 !
b10111110 *
b10111110 p
1"
#1950
0"
#1955
b10111111 !
b10111111 *
b10111111 p
1"
#1960
0"
#1965
b11000000 !
b11000000 *
b11000000 p
1"
#1970
0"
#1975
b11000001 !
b11000001 *
b11000001 p
1"
#1980
0"
#1985
b11000010 !
b11000010 *
b11000010 p
1"
#1990
0"
#1995
b11000011 !
b11000011 *
b11000011 p
1"
#2000
0"
#2005
b11000100 !
b11000100 *
b11000100 p
1"
#2010
0"
#2015
b11000101 !
b11000101 *
b11000101 p
1"
#2020
0"
#2025
b11000110 !
b11000110 *
b11000110 p
1"
#2030
0"
#2035
b11000111 !
b11000111 *
b11000111 p
1"
#2040
0"
#2045
b11001000 !
b11001000 *
b11001000 p
1"
#2050
0"
#2055
b11001001 !
b11001001 *
b11001001 p
1"
#2060
0"
#2065
b11001010 !
b11001010 *
b11001010 p
1"
#2070
0"
#2075
b11001011 !
b11001011 *
b11001011 p
1"
#2080
0"
#2085
b11001100 !
b11001100 *
b11001100 p
1"
#2090
0"
#2095
b11001101 !
b11001101 *
b11001101 p
1"
#2100
0"
#2105
b11001110 !
b11001110 *
b11001110 p
1"
#2110
0"
#2115
b11001111 !
b11001111 *
b11001111 p
1"
#2120
0"
#2125
b11010000 !
b11010000 *
b11010000 p
1"
#2130
0"
#2135
b11010001 !
b11010001 *
b11010001 p
1"
#2140
0"
#2145
b11010010 !
b11010010 *
b11010010 p
1"
#2150
0"
#2155
b11010011 !
b11010011 *
b11010011 p
1"
#2160
0"
#2165
b11010100 !
b11010100 *
b11010100 p
1"
#2170
0"
#2175
b11010101 !
b11010101 *
b11010101 p
1"
#2180
0"
#2185
b11010110 !
b11010110 *
b11010110 p
1"
#2190
0"
#2195
b11010111 !
b11010111 *
b11010111 p
1"
#2200
0"
#2205
b11011000 !
b11011000 *
b11011000 p
1"
#2210
0"
#2215
b11011001 !
b11011001 *
b11011001 p
1"
#2220
0"
#2225
b11011010 !
b11011010 *
b11011010 p
1"
#2230
0"
#2235
b11011011 !
b11011011 *
b11011011 p
1"
#2240
0"
#2245
b11011100 !
b11011100 *
b11011100 p
1"
#2250
0"
#2255
b11011101 !
b11011101 *
b11011101 p
1"
#2260
0"
#2265
b11011110 !
b11011110 *
b11011110 p
1"
#2270
0"
#2275
b11011111 !
b11011111 *
b11011111 p
1"
#2280
0"
#2285
b11100000 !
b11100000 *
b11100000 p
1"
#2290
0"
#2295
b11100001 !
b11100001 *
b11100001 p
1"
#2300
0"
#2305
b11100010 !
b11100010 *
b11100010 p
1"
#2310
0"
#2315
b11100011 !
b11100011 *
b11100011 p
1"
#2320
0"
#2325
b11100100 !
b11100100 *
b11100100 p
1"
#2330
0"
#2335
b11100101 !
b11100101 *
b11100101 p
1"
#2340
0"
#2345
b11100110 !
b11100110 *
b11100110 p
1"
#2350
0"
#2355
b11100111 !
b11100111 *
b11100111 p
1"
#2360
0"
#2365
b11101000 !
b11101000 *
b11101000 p
1"
#2370
0"
#2375
b11101001 !
b11101001 *
b11101001 p
1"
#2380
0"
#2385
b11101010 !
b11101010 *
b11101010 p
1"
#2390
0"
#2395
b11101011 !
b11101011 *
b11101011 p
1"
#2400
0"
#2405
b11101100 !
b11101100 *
b11101100 p
1"
#2410
0"
#2415
b11101101 !
b11101101 *
b11101101 p
1"
#2420
0"
#2425
b11101110 !
b11101110 *
b11101110 p
1"
#2430
0"
#2435
b11101111 !
b11101111 *
b11101111 p
1"
#2440
0"
#2445
b11110000 !
b11110000 *
b11110000 p
1"
#2450
0"
#2455
b11110001 !
b11110001 *
b11110001 p
1"
#2460
0"
#2465
b11110010 !
b11110010 *
b11110010 p
1"
#2470
0"
#2475
b11110011 !
b11110011 *
b11110011 p
1"
#2480
0"
#2485
b11110100 !
b11110100 *
b11110100 p
1"
#2490
0"
#2495
b11110101 !
b11110101 *
b11110101 p
1"
#2500
0"
#2505
b11110110 !
b11110110 *
b11110110 p
1"
#2510
0"
#2515
b11110111 !
b11110111 *
b11110111 p
1"
#2520
0"
#2525
b11111000 !
b11111000 *
b11111000 p
1"
#2530
0"
#2535
b11111001 !
b11111001 *
b11111001 p
1"
#2540
0"
#2545
b11111010 !
b11111010 *
b11111010 p
1"
#2550
0"
#2555
b11111011 !
b11111011 *
b11111011 p
1"
#2560
0"
#2565
b11111100 !
b11111100 *
b11111100 p
1"
#2570
0"
#2575
b11111101 !
b11111101 *
b11111101 p
1"
#2580
0"
#2585
b11111110 !
b11111110 *
b11111110 p
1"
#2590
0"
#2595
b11111111 !
b11111111 *
b11111111 p
1"
#2600
0"
#2605
b100000000 !
b100000000 *
b100000000 p
1"
#2610
0"
#2615
b100000001 !
b100000001 *
b100000001 p
1"
#2620
0"
#2625
b100000010 !
b100000010 *
b100000010 p
1"
#2630
0"
#2635
b100000011 !
b100000011 *
b100000011 p
1"
#2640
0"
#2645
b100000100 !
b100000100 *
b100000100 p
1"
#2650
0"
#2655
b100000101 !
b100000101 *
b100000101 p
1"
#2660
0"
#2665
b100000110 !
b100000110 *
b100000110 p
1"
#2670
0"
#2675
b100000111 !
b100000111 *
b100000111 p
1"
#2680
0"
#2685
b100001000 !
b100001000 *
b100001000 p
1"
#2690
0"
#2695
b100001001 !
b100001001 *
b100001001 p
1"
#2700
0"
#2705
b100001010 !
b100001010 *
b100001010 p
1"
#2710
0"
#2715
b100001011 !
b100001011 *
b100001011 p
1"
#2720
0"
#2725
b100001100 !
b100001100 *
b100001100 p
1"
#2730
0"
#2735
b100001101 !
b100001101 *
b100001101 p
1"
#2740
0"
#2745
b100001110 !
b100001110 *
b100001110 p
1"
#2750
0"
#2755
b100001111 !
b100001111 *
b100001111 p
1"
#2760
0"
#2765
b100010000 !
b100010000 *
b100010000 p
1"
#2770
0"
#2775
b100010001 !
b100010001 *
b100010001 p
1"
#2780
0"
#2785
b100010010 !
b100010010 *
b100010010 p
1"
#2790
0"
#2795
b100010011 !
b100010011 *
b100010011 p
1"
#2800
0"
#2805
b100010100 !
b100010100 *
b100010100 p
1"
#2810
0"
#2815
b100010101 !
b100010101 *
b100010101 p
1"
#2820
0"
#2825
b100010110 !
b100010110 *
b100010110 p
1"
